0,0
840,1
841,0
2132,1
2136,0
24055,1
24064,0
39800,1
39817,0
44454,1
44464,0
45994,1
46004,0
58895,1
58896,0
62515,1
62519,0
116190,1
116201,0
121350,1
121360,0
124711,1
124722,0
125477,1
125491,0
137873,1
137877,0
138386,1
138396,0
139413,1
139424,0
139931,1
139941,0
145348,1
145360,0
145604,1
145620,0
161087,1
161104,0
161620,1
161625,0
200000,0
