0,0
826,1
830,0
5224,1
5226,0
8836,1
8837,0
17342,1
17358,0
18387,1
18391,0
19923,1
19936,0
25086,1
25092,0
26378,1
26391,0
27151,1
27158,0
28181,1
28205,0
30772,1
30785,0
35151,1
35164,0
43150,1
43165,0
43927,1
43946,0
53477,1
53488,0
53987,1
53992,0
57611,1
57618,0
58641,1
58655,0
60454,1
60461,0
189224,1
189233,0
196188,1
196198,0
208063,1
208064,0
221737,1
221749,0
241352,1
241361,0
244186,1
244202,0
244706,1
244711,0
249099,1
249104,0
259931,1
259941,0
402906,1
402909,0
404959,1
404969,0
409088,1
409100,0
414519,1
414527,0
417862,1
417866,0
420972,1
420976,0
424066,1
424076,0
426375,1
426383,0
438254,1
438261,0
441346,1
441351,0
443923,1
443937,0
447806,1
447809,0
451155,1
451164,0
451414,1
451427,0
452190,1
452198,0
452703,1
452718,0
461222,1
461226,0
461994,1
462010,0
587153,1
587164,0
593604,1
593613,0
598241,1
598262,0
598517,1
598526,0
606511,1
606523,0
609865,1
609881,0
617604,1
617620,0
619172,1
619172,0
624582,1
624589,0
630774,1
630780,0
632058,1
632060,0
641351,1
641365,0
642376,1
642388,0
652451,1
652464,0
661740,1
661755,0
664832,1
664840,0
764184,1
764195,0
784311,1
784327,0
784834,1
784842,0
789224,1
789237,0
790762,1
790781,0
792057,1
792066,0
793089,1
793110,0
795670,1
795696,0
796969,1
796974,0
797728,1
797749,0
799281,1
799295,0
800066,1
800068,0
803931,1
803949,0
813218,1
813238,0
815281,1
815288,0
815795,1
815802,0
818636,1
818657,0
826903,1
826905,0
831540,1
831545,0
844188,1
844194,0
847796,1
847806,0
960063,1
960067,0
975795,1
975810,0
995932,1
995933,0
996452,1
996457,0
1001087,1
1001095,0
1003665,1
1003673,0
1011417,1
1011431,0
1015795,1
1015808,0
1019152,1
1019162,0
1020448,1
1020453,0
1022517,1
1022522,0
1026896,1
1026916,0
1035150,1
1035161,0
1050645,1
1050650,0
1055544,1
1055559,0
1055802,1
1055805,0
1060968,1
1060978,0
1183288,1
1183295,0
1183803,1
1183805,0
1192067,1
1192075,0
1196180,1
1196189,0
1196455,1
1196456,0
1198251,1
1198258,0
1202643,1
1202649,0
1214510,1
1214522,0
1216579,1
1216586,0
1221226,1
1221232,0
1227927,1
1227945,0
1235929,1
1235936,0
1236970,1
1236977,0
1240325,1
1240328,0
1241081,1
1241095,0
1241610,1
1241621,0
1243417,1
1243433,0
1397989,1
1397998,0
1415800,1
1415809,0
1423025,1
1423034,0
1423280,1
1423299,0
1425604,1
1425615,0
1426643,1
1426649,0
1427935,1
1427946,0
1434379,1
1434390,0
1434647,1
1434652,0
1440839,1
1440848,0
1445474,1
1445492,0
1449876,1
1449889,0
1457871,1
1457881,0
1460455,1
1460459,0
1462515,1
1462524,0
1590253,1
1590258,0
1597993,1
1598001,0
1598257,1
1598268,0
1600836,1
1600853,0
1601341,1
1601363,0
1603923,1
1603936,0
1604965,1
1604973,0
1606255,1
1606270,0
1606512,1
1606523,0
1614250,1
1614269,0
1614765,1
1614771,0
1615030,1
1615042,0
1615792,1
1615812,0
1619408,1
1619420,0
1621223,1
1621225,0
1621998,1
1622002,0
1623541,1
1623553,0
1625356,1
1625356,0
1629486,1
1629489,0
1632567,1
1632586,0
1633082,1
1633089,0
1634385,1
1634392,0
1635930,1
1635937,0
1639547,1
1639555,0
1641355,1
1641360,0
1647023,1
1647032,0
1650384,1
1650393,0
1651424,1
1651432,0
1654504,1
1654513,0
1658381,1
1658394,0
1661992,1
1662000,0
1663286,1
1663304,0
1781740,1
1781745,0
1790003,1
1790009,0
1791030,1
1791036,0
1795677,1
1795683,0
1805742,1
1805746,0
1807803,1
1807805,0
1819932,1
1819945,0
1822761,1
1822775,0
1829219,1
1829228,0
1838255,1
1838257,0
1841610,1
1841612,0
1842125,1
1842137,0
1852956,1
1852964,0
1859939,1
1859941,0
1863544,1
1863558,0
1968836,1
1968844,0
1976584,1
1976584,0
1980973,1
1980982,0
1988702,1
1988706,0
1989478,1
1989500,0
1990248,1
1990256,0
1990767,1
1990786,0
1996183,1
1996185,0
1999291,1
1999299,0
2000000,0
