0,0
52,1
90,0
295,1
335,0
554,1
603,0
811,1
862,0
1071,1
1117,0
1333,1
1376,0
1589,1
1629,0
1853,1
1898,0
2109,1
2147,0
2368,1
2411,0
2628,1
2669,0
2895,1
2927,0
3141,1
3186,0
3402,1
3449,0
3662,1
3696,0
3915,1
3947,0
4176,1
4220,0
4430,1
4472,0
4692,1
4729,0
4941,1
4986,0
5204,1
5247,0
5464,1
5512,0
5725,1
5756,0
5976,1
6023,0
6238,1
6285,0
6496,1
6539,0
6754,1
6800,0
7013,1
7061,0
7267,1
7313,0
7525,1
7575,0
7787,1
7827,0
8045,1
8083,0
8297,1
8346,0
8555,1
8610,0
8814,1
8864,0
9081,1
9121,0
9335,1
9369,0
9597,1
9635,0
9856,1
9887,0
10100,1
10148,0
10367,1
10408,0
10624,1
10661,0
10883,1
10918,0
11140,1
11185,0
11394,1
11445,0
11652,1
11693,0
11911,1
11960,0
12167,1
12213,0
12424,1
12469,0
12686,1
12738,0
12954,1
12991,0
13198,1
13249,0
13465,1
13495,0
13714,1
13766,0
13982,1
14025,0
14237,1
14275,0
14492,1
14539,0
14754,1
14790,0
15006,1
15057,0
15266,1
15312,0
15528,1
15570,0
15785,1
15824,0
16043,1
16083,0
16298,1
16345,0
16558,1
16596,0
16828,1
16853,0
17074,1
17113,0
17327,1
17376,0
17593,1
17631,0
17850,1
17896,0
18105,1
18156,0
18367,1
18411,0
18613,1
18666,0
18881,1
18929,0
19138,1
19182,0
19395,1
19441,0
19652,1
19698,0
19912,1
19951,0
20172,1
20215,0
20424,1
20473,0
20694,1
20733,0
20949,1
20993,0
21201,1
21247,0
21467,1
21512,0
21713,1
21766,0
21975,1
22011,0
22243,1
22286,0
22501,1
22527,0
22756,1
22789,0
23017,1
23049,0
23274,1
23302,0
23525,1
23571,0
23783,1
23822,0
24040,1
24085,0
24304,1
24350,0
24564,1
24595,0
24816,1
24857,0
25070,1
25120,0
25331,1
25375,0
25595,1
25616,0
25849,1
25889,0
26105,1
26137,0
26366,1
26410,0
26632,1
26660,0
26886,1
26925,0
27138,1
27192,0
27399,1
27433,0
27657,1
27698,0
27914,1
27955,0
28165,1
28219,0
28442,1
28473,0
28688,1
28734,0
28947,1
28989,0
29201,1
29247,0
29458,1
29508,0
29713,1
29753,0
29981,1
30023,0
30245,1
30278,0
30508,1
30534,0
30753,1
30801,0
31005,1
31049,0
31268,1
31307,0
31527,1
31566,0
31788,1
31816,0
32041,1
32093,0
32313,1
32347,0
32564,1
32603,0
32820,1
32862,0
33082,1
33116,0
33328,1
33381,0
33587,1
33634,0
33847,1
33893,0
34120,1
34144,0
34365,1
34409,0
34627,1
34662,0
34884,1
34920,0
35137,1
35179,0
35404,1
35448,0
35650,1
35702,0
35924,1
35960,0
36171,1
36216,0
36427,1
36470,0
36687,1
36731,0
36944,1
36984,0
37202,1
37250,0
37466,1
37496,0
37717,1
37766,0
37981,1
38021,0
38237,1
38279,0
38490,1
38537,0
38749,1
38795,0
39009,1
39047,0
39267,1
39315,0
39523,1
39578,0
39784,1
39828,0
40051,1
40081,0
40306,1
40338,0
40590,1
40605,0
40816,1
40861,0
41077,1
41125,0
41336,1
41383,0
41595,1
41629,0
41850,1
41893,0
42112,1
42153,0
42366,1
42406,0
42624,1
42665,0
42891,1
42926,0
43138,1
43184,0
43397,1
43439,0
43654,1
43702,0
43913,1
43963,0
44172,1
44216,0
44428,1
44474,0
44689,1
44730,0
44943,1
44994,0
45201,1
45247,0
45461,1
45501,0
45724,1
45760,0
45979,1
46016,0
46241,1
46277,0
46493,1
46537,0
46756,1
46793,0
47008,1
47053,0
47271,1
47314,0
47529,1
47573,0
47787,1
47834,0
48039,1
48087,0
48301,1
48339,0
48558,1
48597,0
48820,1
48861,0
49085,1
49115,0
49340,1
49381,0
49590,1
49631,0
49844,1
49880,0
50108,1
50153,0
50363,1
50406,0
50632,1
50666,0
50883,1
50924,0
51142,1
51182,0
51404,1
51436,0
51655,1
51693,0
51909,1
51955,0
52170,1
52207,0
52440,1
52476,0
52688,1
52734,0
52951,1
52986,0
53201,1
53240,0
53458,1
53506,0
53723,1
53756,0
53971,1
54021,0
54238,1
54281,0
54492,1
54541,0
54753,1
54792,0
55011,1
55057,0
55264,1
55312,0
55528,1
55570,0
55785,1
55828,0
56046,1
56090,0
56305,1
56340,0
56560,1
56609,0
56817,1
56854,0
57081,1
57120,0
57337,1
57375,0
57595,1
57638,0
57845,1
57894,0
58109,1
58148,0
58368,1
58410,0
58622,1
58673,0
58883,1
58925,0
59143,1
59178,0
59398,1
59439,0
59655,1
59700,0
59914,1
59957,0
60177,1
60203,0
60434,1
60481,0
60685,1
60723,0
60946,1
60991,0
61207,1
61248,0
61460,1
61507,0
61726,1
61757,0
61985,1
62021,0
62237,1
62271,0
62498,1
62534,0
62754,1
62798,0
63012,1
63054,0
63271,1
63315,0
63527,1
63571,0
63783,1
63828,0
64045,1
64079,0
64305,1
64329,0
64566,1
64597,0
64818,1
64857,0
65076,1
65120,0
65337,1
65365,0
65595,1
65639,0
65850,1
65887,0
66114,1
66148,0
66377,1
66403,0
66629,1
66665,0
66885,1
66921,0
67144,1
67190,0
67403,1
67433,0
67658,1
67688,0
67917,1
67949,0
68180,1
68212,0
68433,1
68465,0
68698,1
68724,0
69213,1
69235,0
69470,1
69503,0
69730,1
69758,0
69989,1
70020,0
70237,1
70278,0
70502,1
70526,0
70760,1
70788,0
71012,1
71051,0
71284,1
71306,0
71528,1
71568,0
71786,1
71825,0
72045,1
72078,0
72322,1
72338,0
72574,1
72587,0
72828,1
72841,0
73084,1
73107,0
73339,1
73365,0
73600,1
73618,0
73857,1
73871,0
74122,1
74129,0
74371,1
74399,0
74635,1
74655,0
75144,1
75167,0
75422,1
75437,0
75667,1
75686,0
76180,1
76211,0
76452,1
76468,0
77474,1
77485,0
77995,1
78014,0
78503,1
78525,0
79023,1
79040,0
80316,1
80343,0
81093,1
81101,0
121353,1
121365,0
129852,1
129875,0
131159,1
131171,0
132965,1
132976,0
133997,1
134010,0
134499,1
134517,0
136579,1
136584,0
136828,1
136841,0
137088,1
137107,0
137344,1
137349,0
137602,1
137616,0
137872,1
137877,0
138650,1
138652,0
139154,1
139167,0
139403,1
139431,0
139932,1
139943,0
140948,1
140986,0
141208,1
141235,0
141468,1
141497,0
141728,1
141757,0
141995,1
142011,0
142251,1
142266,0
143015,1
143036,0
143276,1
143291,0
143791,1
143805,0
144831,1
144836,0
145084,1
145117,0
145347,1
145362,0
145603,1
145612,0
145879,1
145885,0
146122,1
146142,0
147154,1
147180,0
147415,1
147433,0
147655,1
147686,0
147924,1
147946,0
148175,1
148208,0
148444,1
148469,0
148950,1
148987,0
149214,1
149230,0
149472,1
149503,0
149716,1
149759,0
150249,1
150275,0
150504,1
150527,0
150762,1
150792,0
151015,1
151042,0
151275,1
151302,0
151542,1
151561,0
151789,1
151817,0
152047,1
152075,0
152309,1
152338,0
152581,1
152598,0
152831,1
152844,0
153101,1
153110,0
153854,1
153884,0
154107,1
154151,0
154371,1
154395,0
154643,1
154664,0
154876,1
154916,0
155152,1
155184,0
155404,1
155440,0
155658,1
155693,0
155921,1
155956,0
156173,1
156207,0
156434,1
156470,0
156693,1
156727,0
156950,1
156985,0
157217,1
157231,0
157476,1
157487,0
157728,1
157756,0
157974,1
158018,0
158239,1
158272,0
158520,1
158529,0
158752,1
158793,0
159023,1
159053,0
159275,1
159301,0
159529,1
159556,0
160049,1
160085,0
160319,1
160338,0
160559,1
160589,0
160823,1
160858,0
161075,1
161106,0
161337,1
161373,0
161589,1
161630,0
161855,1
161884,0
162105,1
162143,0
162371,1
162398,0
162626,1
162664,0
162892,1
162892,0
163137,1
163185,0
163408,1
163438,0
163926,1
163955,0
164195,1
164200,0
164438,1
164461,0
164696,1
164729,0
164953,1
164987,0
165202,1
165236,0
165468,1
165508,0
165724,1
165764,0
165983,1
166019,0
166241,1
166280,0
166514,1
166537,0
166755,1
166790,0
167007,1
167044,0
167271,1
167301,0
167529,1
167562,0
167785,1
167824,0
168045,1
168080,0
168304,1
168342,0
168565,1
168604,0
168820,1
168853,0
169081,1
169116,0
169341,1
169358,0
169599,1
169628,0
169852,1
169894,0
170108,1
170143,0
170367,1
170399,0
170624,1
170661,0
170890,1
170921,0
171136,1
171179,0
171405,1
171440,0
171662,1
171702,0
171913,1
171946,0
172172,1
172211,0
172428,1
172469,0
172686,1
172737,0
172963,1
172994,0
173204,1
173247,0
173466,1
173506,0
173725,1
173760,0
173982,1
174022,0
174240,1
174282,0
174497,1
174535,0
174755,1
174795,0
175010,1
175049,0
175271,1
175308,0
175542,1
175569,0
175796,1
175828,0
176045,1
176087,0
176297,1
176344,0
176565,1
176598,0
176817,1
176860,0
177073,1
177119,0
177329,1
177377,0
177600,1
177635,0
177842,1
177888,0
178099,1
178150,0
178371,1
178407,0
178630,1
178673,0
178882,1
178919,0
179137,1
179181,0
179401,1
179439,0
179660,1
179700,0
179918,1
179954,0
180169,1
180209,0
180430,1
180476,0
180694,1
180734,0
180943,1
180992,0
181205,1
181246,0
181466,1
181500,0
181714,1
181761,0
181982,1
182013,0
182237,1
182282,0
182498,1
182525,0
182756,1
182794,0
183012,1
183053,0
183271,1
183311,0
183524,1
183569,0
183794,1
183831,0
184051,1
184091,0
184293,1
184340,0
184552,1
184598,0
184828,1
184856,0
185079,1
185115,0
185335,1
185368,0
185595,1
185631,0
185860,1
185891,0
186106,1
186140,0
186360,1
186409,0
186629,1
186665,0
186889,1
186927,0
187132,1
187182,0
187408,1
187443,0
187658,1
187699,0
187912,1
187960,0
188174,1
188205,0
188423,1
188473,0
188687,1
188736,0
188951,1
188986,0
189201,1
189253,0
189459,1
189501,0
189729,1
189760,0
189982,1
190023,0
190238,1
190279,0
190493,1
190533,0
190750,1
190793,0
191016,1
191052,0
191268,1
191309,0
191529,1
191572,0
191811,1
191820,0
192039,1
192083,0
192300,1
192347,0
192558,1
192595,0
192809,1
192859,0
193085,1
193123,0
193335,1
193374,0
193587,1
193635,0
193848,1
193890,0
194109,1
194156,0
194366,1
194409,0
194620,1
194662,0
194880,1
194919,0
195138,1
195177,0
195410,1
195431,0
195664,1
195693,0
195908,1
195958,0
196174,1
196217,0
196432,1
196469,0
196687,1
196736,0
196947,1
196991,0
197205,1
197242,0
197453,1
197502,0
197721,1
197762,0
197975,1
198022,0
198238,1
198280,0
198497,1
198529,0
198750,1
198795,0
199009,1
199051,0
199270,1
199314,0
199529,1
199570,0
199786,1
199827,0
200040,1
200082,0
200301,1
200341,0
200566,1
200596,0
200817,1
200861,0
201073,1
201120,0
201333,1
201373,0
201594,1
201631,0
201851,1
201886,0
202105,1
202151,0
202366,1
202409,0
202625,1
202664,0
202888,1
202925,0
203136,1
203189,0
203401,1
203435,0
203665,1
203696,0
203910,1
203956,0
204179,1
204213,0
204433,1
204469,0
204687,1
204732,0
204947,1
205002,0
205200,1
205246,0
205463,1
205508,0
205718,1
205756,0
205981,1
206027,0
206239,1
206282,0
206497,1
206542,0
206757,1
206792,0
207017,1
207043,0
207271,1
207311,0
207526,1
207567,0
207787,1
207821,0
208041,1
208088,0
208304,1
208350,0
208562,1
208593,0
208818,1
208863,0
209077,1
209115,0
209338,1
209372,0
209598,1
209634,0
209856,1
209892,0
210107,1
210145,0
210364,1
210406,0
210626,1
210658,0
210883,1
210914,0
211140,1
211175,0
211399,1
211442,0
211652,1
211683,0
211918,1
211954,0
212176,1
212216,0
212432,1
212473,0
212688,1
212735,0
212950,1
212992,0
213213,1
213243,0
213465,1
213498,0
213723,1
213763,0
213992,1
214023,0
214238,1
214279,0
214490,1
214537,0
214754,1
214792,0
215010,1
215064,0
215273,1
215303,0
215531,1
215574,0
215785,1
215823,0
216042,1
216082,0
216303,1
216343,0
216564,1
216607,0
216816,1
216857,0
217085,1
217118,0
217336,1
217368,0
217600,1
217640,0
217851,1
217888,0
218108,1
218147,0
218367,1
218413,0
218625,1
218663,0
218880,1
218916,0
219151,1
219179,0
219399,1
219425,0
219661,1
219693,0
219912,1
219947,0
220176,1
220208,0
220431,1
220472,0
220694,1
220737,0
220950,1
220986,0
221200,1
221242,0
221462,1
221511,0
221722,1
221765,0
221988,1
222007,0
222239,1
222284,0
222491,1
222528,0
222751,1
222800,0
223007,1
223054,0
223276,1
223301,0
223305,1
223313,0
223523,1
223567,0
223789,1
223819,0
224046,1
224089,0
224305,1
224333,0
224565,1
224593,0
224817,1
224860,0
225078,1
225122,0
225348,1
225372,0
225594,1
225613,0
225850,1
225892,0
226110,1
226151,0
226362,1
226414,0
226629,1
226661,0
226877,1
226923,0
227140,1
227178,0
227397,1
227436,0
227664,1
227699,0
227915,1
227953,0
228171,1
228213,0
228431,1
228473,0
228688,1
228734,0
228946,1
228992,0
229203,1
229241,0
229466,1
229502,0
229722,1
229763,0
229978,1
230020,0
230238,1
230280,0
230497,1
230538,0
230763,1
230781,0
231010,1
231057,0
231287,1
231311,0
231523,1
231570,0
231791,1
231826,0
232043,1
232074,0
232303,1
232346,0
232563,1
232605,0
232819,1
232863,0
233082,1
233113,0
233337,1
233368,0
233599,1
233632,0
233848,1
233890,0
234110,1
234131,0
234365,1
234406,0
234622,1
234667,0
234881,1
234927,0
235138,1
235182,0
235397,1
235444,0
235655,1
235703,0
235919,1
235957,0
236169,1
236203,0
236426,1
236476,0
236691,1
236728,0
236946,1
236990,0
237202,1
237242,0
237465,1
237506,0
237722,1
237761,0
237981,1
238014,0
238238,1
238279,0
238498,1
238541,0
238749,1
238794,0
239009,1
239047,0
239275,1
239314,0
239524,1
239565,0
239784,1
239830,0
240045,1
240084,0
240299,1
240343,0
240557,1
240600,0
240811,1
240863,0
241078,1
241124,0
241337,1
241378,0
241590,1
241635,0
241847,1
241884,0
242113,1
242155,0
242369,1
242410,0
242626,1
242666,0
242883,1
242924,0
243138,1
243185,0
243396,1
243437,0
243659,1
243691,0
243904,1
243950,0
244172,1
244217,0
244427,1
244459,0
244685,1
244737,0
244949,1
244988,0
245215,1
245223,0
245461,1
245505,0
245725,1
245757,0
245981,1
246024,0
246240,1
246279,0
246489,1
246538,0
246749,1
246791,0
247010,1
247058,0
247266,1
247306,0
247538,1
247573,0
247786,1
247831,0
248052,1
248082,0
248301,1
248345,0
248568,1
248601,0
248840,1
248864,0
249077,1
249119,0
249334,1
249371,0
249592,1
249630,0
249850,1
249884,0
250102,1
250136,0
250366,1
250415,0
250619,1
250663,0
250885,1
250921,0
251136,1
251190,0
251397,1
251440,0
251667,1
251698,0
251910,1
251959,0
252180,1
252205,0
252436,1
252462,0
252693,1
252727,0
252960,1
252991,0
253204,1
253244,0
253473,1
253494,0
253730,1
253764,0
253983,1
254020,0
254236,1
254281,0
254491,1
254535,0
254752,1
254794,0
255010,1
255050,0
255267,1
255312,0
255525,1
255572,0
255786,1
255829,0
256042,1
256085,0
256296,1
256342,0
256562,1
256601,0
256825,1
256864,0
257078,1
257114,0
257347,1
257374,0
257591,1
257634,0
257851,1
257885,0
258108,1
258153,0
258367,1
258404,0
258626,1
258665,0
258887,1
258921,0
259142,1
259182,0
259405,1
259441,0
259659,1
259700,0
259915,1
259959,0
260177,1
260210,0
260434,1
260471,0
260689,1
260728,0
260951,1
260985,0
261217,1
261243,0
261465,1
261510,0
261713,1
261760,0
261984,1
262026,0
262235,1
262280,0
262491,1
262534,0
262760,1
262788,0
263007,1
263051,0
263271,1
263306,0
263527,1
263563,0
263780,1
263816,0
264042,1
264079,0
264302,1
264342,0
264555,1
264592,0
264822,1
264857,0
265080,1
265117,0
265343,1
265366,0
265596,1
265637,0
265856,1
265883,0
266115,1
266119,0
266121,1
266150,0
266361,1
266408,0
266628,1
266662,0
266886,1
266921,0
267148,1
267185,0
267394,1
267433,0
267659,1
267694,0
267912,1
267951,0
268175,1
268208,0
268440,1
268460,0
268702,1
268718,0
269211,1
269245,0
269465,1
269497,0
269729,1
269759,0
269978,1
270009,0
270234,1
270283,0
270505,1
270534,0
271014,1
271049,0
271285,1
271308,0
271539,1
271562,0
271796,1
271821,0
272055,1
272079,0
272822,1
272853,0
273084,1
273096,0
273337,1
273364,0
273602,1
273610,0
274377,1
274401,0
274894,1
274908,0
275412,1
275422,0
275919,1
275925,0
276180,1
276203,0
276698,1
276724,0
277227,1
277242,0
356194,1
356197,0
360841,1
360844,0
361094,1
361109,0
362380,1
362386,0
362887,1
362912,0
363400,1
363420,0
364187,1
364206,0
364701,1
364716,0
365231,1
365238,0
366249,1
366265,0
366503,1
366506,0
367551,1
367557,0
368045,1
368074,0
368825,1
368850,0
369087,1
369103,0
369338,1
369357,0
369606,1
369622,0
369871,1
369892,0
370117,1
370141,0
370624,1
370661,0
371156,1
371183,0
371409,1
371432,0
371660,1
371692,0
371934,1
371949,0
372451,1
372463,0
372717,1
372723,0
372956,1
372989,0
373230,1
373245,0
373462,1
373497,0
373724,1
373754,0
373984,1
374018,0
374248,1
374266,0
374499,1
374540,0
374749,1
374781,0
375020,1
375044,0
375286,1
375309,0
375539,1
375569,0
376072,1
376082,0
376311,1
376335,0
376564,1
376598,0
376836,1
376862,0
377089,1
377111,0
377340,1
377369,0
377600,1
377622,0
377860,1
377879,0
378115,1
378131,0
378378,1
378400,0
378636,1
378664,0
378884,1
378917,0
379417,1
379433,0
379659,1
379696,0
379917,1
379948,0
380179,1
380207,0
380447,1
380458,0
380693,1
380730,0
381463,1
381495,0
381730,1
381757,0
381986,1
382025,0
382495,1
382531,0
382754,1
382784,0
383008,1
383047,0
383278,1
383310,0
383522,1
383569,0
383783,1
383827,0
384041,1
384062,0
384305,1
384332,0
384564,1
384598,0
384823,1
384854,0
385078,1
385115,0
385345,1
385369,0
385593,1
385634,0
385864,1
385884,0
386114,1
386146,0
386366,1
386393,0
386627,1
386658,0
386886,1
386924,0
387142,1
387184,0
387404,1
387434,0
387655,1
387695,0
387914,1
387950,0
388173,1
388210,0
388442,1
388451,0
388694,1
388718,0
388944,1
388986,0
389465,1
389504,0
389719,1
389753,0
389979,1
390014,0
390232,1
390280,0
390502,1
390530,0
390755,1
390790,0
391025,1
391046,0
391280,1
391309,0
391528,1
391565,0
391786,1
391824,0
392049,1
392080,0
392314,1
392339,0
392559,1
392601,0
392823,1
392857,0
393073,1
393116,0
393334,1
393370,0
393620,1
393620,0
393858,1
393883,0
394109,1
394149,0
394370,1
394407,0
394630,1
394658,0
394885,1
394923,0
395153,1
395172,0
395398,1
395432,0
395662,1
395687,0
395914,1
395957,0
396168,1
396211,0
396435,1
396470,0
396692,1
396725,0
396949,1
396991,0
397206,1
397250,0
397465,1
397506,0
397725,1
397763,0
397977,1
398016,0
398244,1
398273,0
398497,1
398539,0
398757,1
398796,0
399014,1
399049,0
399264,1
399307,0
399524,1
399567,0
399788,1
399832,0
400041,1
400087,0
400299,1
400336,0
400562,1
400604,0
400823,1
400856,0
401075,1
401118,0
401336,1
401374,0
401588,1
401634,0
401855,1
401895,0
402105,1
402150,0
402361,1
402412,0
402623,1
402670,0
402884,1
402932,0
403142,1
403179,0
403396,1
403449,0
403656,1
403692,0
403912,1
403944,0
404171,1
404217,0
404427,1
404471,0
404699,1
404730,0
404935,1
404987,0
405207,1
405236,0
405467,1
405501,0
405733,1
405752,0
405976,1
406024,0
406243,1
406282,0
406496,1
406534,0
406744,1
406801,0
407015,1
407047,0
407269,1
407310,0
407531,1
407573,0
407786,1
407830,0
408040,1
408089,0
408300,1
408350,0
408561,1
408609,0
408823,1
408858,0
409076,1
409117,0
409339,1
409368,0
409591,1
409636,0
409851,1
409892,0
410111,1
410155,0
410361,1
410401,0
410623,1
410663,0
410883,1
410925,0
411140,1
411181,0
411401,1
411439,0
411656,1
411700,0
411916,1
411951,0
412168,1
412218,0
412432,1
412474,0
412687,1
412728,0
412943,1
412988,0
413201,1
413243,0
413463,1
413498,0
413720,1
413767,0
413976,1
414025,0
414237,1
414283,0
414491,1
414544,0
414763,1
414787,0
415012,1
415045,0
415268,1
415310,0
415534,1
415566,0
415787,1
415830,0
416045,1
416091,0
416296,1
416344,0
416563,1
416606,0
416816,1
416859,0
417082,1
417121,0
417340,1
417376,0
417593,1
417632,0
417845,1
417892,0
418105,1
418150,0
418369,1
418407,0
418624,1
418666,0
418884,1
418925,0
419144,1
419184,0
419405,1
419447,0
419657,1
419690,0
419913,1
419961,0
420167,1
420208,0
420436,1
420468,0
420691,1
420729,0
420948,1
420994,0
421208,1
421250,0
421459,1
421500,0
421727,1
421760,0
421978,1
422021,0
422235,1
422277,0
422493,1
422538,0
422756,1
422799,0
423017,1
423051,0
423272,1
423315,0
423529,1
423569,0
423780,1
423824,0
424044,1
424090,0
424294,1
424334,0
424557,1
424601,0
424819,1
424859,0
425071,1
425112,0
425328,1
425379,0
425588,1
425632,0
425850,1
425892,0
426103,1
426148,0
426360,1
426413,0
426629,1
426661,0
426883,1
426927,0
427143,1
427172,0
427393,1
427437,0
427655,1
427692,0
427912,1
427957,0
428182,1
428219,0
428429,1
428470,0
428689,1
428729,0
428948,1
428992,0
429209,1
429248,0
429468,1
429505,0
429718,1
429759,0
429979,1
430027,0
430231,1
430271,0
430496,1
430536,0
430751,1
430800,0
431020,1
431049,0
431263,1
431311,0
431792,1
431827,0
432050,1
432092,0
432300,1
432334,0
432553,1
432605,0
432813,1
432864,0
433080,1
433117,0
433337,1
433374,0
433591,1
433629,0
433859,1
433892,0
434107,1
434140,0
434364,1
434403,0
434626,1
434666,0
434889,1
434926,0
435142,1
435177,0
435404,1
435444,0
435660,1
435698,0
435913,1
435949,0
436176,1
436218,0
436428,1
436467,0
436691,1
436723,0
436957,1
436984,0
437199,1
437249,0
437458,1
437500,0
437722,1
437761,0
437979,1
438018,0
438239,1
438280,0
438506,1
438536,0
438750,1
438800,0
439000,1
439052,0
439268,1
439316,0
439533,1
439570,0
439782,1
439819,0
440041,1
440091,0
440297,1
440341,0
440563,1
440602,0
440819,1
440860,0
441082,1
441119,0
441332,1
441377,0
441592,1
441629,0
441845,1
441899,0
442110,1
442144,0
442362,1
442403,0
442623,1
442669,0
442882,1
442929,0
443140,1
443184,0
443402,1
443444,0
443659,1
443695,0
443907,1
443957,0
444170,1
444217,0
444429,1
444470,0
444692,1
444729,0
444944,1
444989,0
445203,1
445247,0
445463,1
445506,0
445721,1
445766,0
445972,1
446024,0
446235,1
446281,0
446489,1
446542,0
446756,1
446798,0
447005,1
447057,0
447270,1
447308,0
447525,1
447570,0
447779,1
447825,0
448044,1
448075,0
448301,1
448344,0
448553,1
448601,0
448815,1
448859,0
449070,1
449114,0
449342,1
449373,0
449594,1
449638,0
449843,1
449894,0
450118,1
450156,0
450363,1
450410,0
450623,1
450653,0
450878,1
450925,0
451134,1
451184,0
451393,1
451443,0
451656,1
451700,0
451920,1
451956,0
452173,1
452214,0
452432,1
452467,0
452684,1
452734,0
452944,1
452986,0
453204,1
453254,0
453461,1
453507,0
453717,1
453761,0
453976,1
454025,0
454238,1
454277,0
454486,1
454526,0
454758,1
454800,0
455009,1
455047,0
455265,1
455312,0
455526,1
455573,0
455781,1
455819,0
456047,1
456083,0
456304,1
456336,0
456570,1
456601,0
456823,1
456864,0
457074,1
457123,0
457342,1
457381,0
457597,1
457636,0
457855,1
457888,0
458104,1
458147,0
458365,1
458416,0
458626,1
458658,0
458881,1
458924,0
459137,1
459175,0
459398,1
459435,0
459654,1
459700,0
459911,1
459958,0
460189,1
460207,0
460423,1
460474,0
460686,1
460729,0
460956,1
460980,0
461199,1
461252,0
461461,1
461506,0
461721,1
461763,0
461981,1
462024,0
462250,1
462272,0
462498,1
462532,0
462751,1
462796,0
463008,1
463059,0
463270,1
463313,0
463524,1
463564,0
463791,1
463824,0
464042,1
464092,0
464297,1
464329,0
464559,1
464589,0
464818,1
464839,0
465073,1
465121,0
465335,1
465375,0
465603,1
465632,0
465849,1
465892,0
466115,1
466142,0
466374,1
466406,0
466621,1
466654,0
466878,1
466910,0
467149,1
467185,0
467399,1
467432,0
467661,1
467694,0
467921,1
467953,0
468167,1
468207,0
468439,1
468461,0
468686,1
468716,0
468955,1
468987,0
469208,1
469227,0
469468,1
469504,0
469733,1
469765,0
469986,1
470013,0
470249,1
470264,0
470502,1
470524,0
470771,1
470795,0
471019,1
471049,0
471540,1
471558,0
471794,1
471812,0
472046,1
472075,0
472570,1
472592,0
472839,1
472852,0
473086,1
473105,0
473343,1
473367,0
473604,1
473637,0
474118,1
474130,0
474635,1
474651,0
474896,1
474903,0
475412,1
475423,0
475666,1
475673,0
475930,1
475946,0
554647,1
554650,0
556448,1
556454,0
557221,1
557233,0
558258,1
558264,0
559016,1
559031,0
559532,1
559549,0
560574,1
560594,0
561082,1
561101,0
561347,1
561357,0
562644,1
562658,0
562895,1
562902,0
563660,1
563693,0
564441,1
564448,0
564708,1
564720,0
564952,1
564984,0
565492,1
565492,0
565992,1
565996,0
566248,1
566275,0
566762,1
566778,0
567026,1
567055,0
567272,1
567298,0
567542,1
567552,0
568051,1
568085,0
568823,1
568852,0
569085,1
569118,0
569610,1
569623,0
569867,1
569891,0
570110,1
570146,0
570371,1
570392,0
570628,1
570661,0
571148,1
571174,0
571401,1
571434,0
571668,1
571698,0
571932,1
571945,0
572182,1
572213,0
572434,1
572474,0
572699,1
572718,0
572949,1
572984,0
573208,1
573223,0
573226,1
573233,0
573471,1
573495,0
573721,1
573761,0
574510,1
574538,0
575016,1
575031,0
575276,1
575311,0
575534,1
575550,0
575790,1
575822,0
576046,1
576079,0
576310,1
576344,0
576567,1
576605,0
576817,1
576850,0
577077,1
577106,0
577331,1
577371,0
577598,1
577631,0
578109,1
578151,0
578373,1
578396,0
578622,1
578661,0
578886,1
578912,0
579154,1
579176,0
579407,1
579439,0
579653,1
579689,0
579940,1
579948,0
580170,1
580208,0
580434,1
580471,0
580688,1
580723,0
580952,1
580985,0
581206,1
581243,0
581473,1
581497,0
581726,1
581763,0
581984,1
582016,0
582239,1
582280,0
582505,1
582539,0
582761,1
582793,0
583008,1
583051,0
583266,1
583308,0
583526,1
583564,0
583784,1
583828,0
584061,1
584079,0
584300,1
584344,0
584553,1
584593,0
584826,1
584852,0
585080,1
585110,0
585338,1
585373,0
585595,1
585638,0
585846,1
585890,0
586109,1
586149,0
586369,1
586399,0
586629,1
586661,0
586877,1
586921,0
587138,1
587182,0
587404,1
587435,0
587657,1
587690,0
587924,1
587960,0
588173,1
588211,0
588435,1
588471,0
588691,1
588732,0
588944,1
588982,0
589204,1
589245,0
589468,1
589500,0
589723,1
589766,0
589976,1
590014,0
590235,1
590281,0
590495,1
590536,0
590751,1
590795,0
591022,1
591052,0
591267,1
591312,0
591526,1
591570,0
591787,1
591830,0
592040,1
592078,0
592306,1
592342,0
592560,1
592599,0
592815,1
592860,0
593069,1
593120,0
593342,1
593372,0
593585,1
593633,0
593843,1
593888,0
594103,1
594152,0
594362,1
594406,0
594619,1
594663,0
594881,1
594920,0
595146,1
595185,0
595405,1
595435,0
595655,1
595705,0
595914,1
595951,0
596169,1
596218,0
596429,1
596477,0
596693,1
596732,0
596942,1
596980,0
597210,1
597249,0
597468,1
597502,0
597716,1
597766,0
597977,1
598022,0
598227,1
598274,0
598496,1
598542,0
598752,1
598795,0
599014,1
599058,0
599267,1
599303,0
599522,1
599566,0
599783,1
599825,0
600040,1
600091,0
600311,1
600342,0
600557,1
600598,0
600814,1
600858,0
601070,1
601121,0
601332,1
601371,0
601606,1
601634,0
601846,1
601886,0
602105,1
602153,0
602363,1
602410,0
602622,1
602656,0
602885,1
602923,0
603136,1
603187,0
603394,1
603446,0
603654,1
603697,0
603911,1
603959,0
604170,1
604217,0
604430,1
604478,0
604684,1
604731,0
604945,1
604990,0
605204,1
605249,0
605466,1
605502,0
605716,1
605768,0
605979,1
606023,0
606237,1
606276,0
606494,1
606542,0
606748,1
606800,0
607000,1
607059,0
607277,1
607313,0
607524,1
607565,0
607791,1
607831,0
608044,1
608087,0
608296,1
608347,0
608556,1
608606,0
608814,1
608860,0
609079,1
609121,0
609332,1
609375,0
609588,1
609637,0
609846,1
609897,0
610105,1
610153,0
610358,1
610405,0
610627,1
610668,0
610877,1
610923,0
611143,1
611183,0
611403,1
611446,0
611655,1
611697,0
611912,1
611962,0
612164,1
612205,0
612428,1
612472,0
612693,1
612735,0
612940,1
612990,0
613202,1
613247,0
613462,1
613497,0
613716,1
613766,0
613978,1
614023,0
614236,1
614279,0
614490,1
614535,0
614748,1
614792,0
615013,1
615050,0
615275,1
615316,0
615534,1
615575,0
615785,1
615828,0
616045,1
616082,0
616303,1
616341,0
616556,1
616610,0
616818,1
616868,0
617075,1
617121,0
617331,1
617373,0
617587,1
617635,0
617845,1
617888,0
618113,1
618153,0
618373,1
618399,0
618619,1
618668,0
618881,1
618925,0
619141,1
619190,0
619398,1
619439,0
619652,1
619697,0
619912,1
619960,0
620174,1
620202,0
620430,1
620473,0
620688,1
620735,0
620951,1
620984,0
621202,1
621244,0
621462,1
621509,0
621727,1
621752,0
621978,1
622025,0
622232,1
622282,0
622501,1
622541,0
622752,1
622798,0
623006,1
623057,0
623267,1
623312,0
623528,1
623566,0
623775,1
623824,0
624035,1
624090,0
624298,1
624341,0
624559,1
624609,0
624817,1
624861,0
625074,1
625121,0
625334,1
625376,0
625586,1
625638,0
625847,1
625894,0
626108,1
626153,0
626370,1
626409,0
626621,1
626669,0
626884,1
626930,0
627137,1
627188,0
627397,1
627438,0
627653,1
627702,0
627916,1
627957,0
628174,1
628216,0
628429,1
628473,0
628682,1
628733,0
628943,1
628994,0
629201,1
629244,0
629462,1
629506,0
629723,1
629764,0
629978,1
630019,0
630239,1
630277,0
630493,1
630539,0
630753,1
630800,0
631013,1
631054,0
631268,1
631309,0
631531,1
631572,0
631778,1
631828,0
632038,1
632090,0
632298,1
632344,0
632555,1
632598,0
632809,1
632854,0
633071,1
633117,0
633337,1
633373,0
633591,1
633635,0
633845,1
633892,0
634108,1
634152,0
634366,1
634410,0
634623,1
634664,0
634875,1
634916,0
635141,1
635179,0
635407,1
635438,0
635649,1
635701,0
635910,1
635952,0
636175,1
636211,0
636437,1
636472,0
636683,1
636733,0
636945,1
636988,0
637213,1
637243,0
637464,1
637508,0
637724,1
637759,0
637978,1
638016,0
638240,1
638279,0
638495,1
638539,0
638756,1
638791,0
639015,1
639055,0
639262,1
639315,0
639540,1
639565,0
639794,1
639829,0
640041,1
640087,0
640300,1
640349,0
640561,1
640606,0
640817,1
640861,0
641075,1
641122,0
641335,1
641377,0
641588,1
641630,0
641854,1
641894,0
642107,1
642142,0
642363,1
642409,0
642628,1
642669,0
642883,1
642923,0
643143,1
643191,0
643405,1
643444,0
643663,1
643693,0
643921,1
643961,0
644172,1
644222,0
644432,1
644475,0
644691,1
644733,0
644948,1
644988,0
645204,1
645249,0
645458,1
645507,0
645727,1
645764,0
645981,1
646018,0
646242,1
646283,0
646491,1
646534,0
646746,1
646793,0
647007,1
647057,0
647275,1
647311,0
647527,1
647574,0
647776,1
647829,0
648040,1
648079,0
648300,1
648344,0
648556,1
648598,0
648817,1
648857,0
649078,1
649116,0
649334,1
649375,0
649589,1
649625,0
649850,1
649885,0
650109,1
650152,0
650366,1
650411,0
650622,1
650667,0
650884,1
650915,0
651138,1
651178,0
651403,1
651445,0
651659,1
651698,0
651918,1
651955,0
652171,1
652212,0
652428,1
652478,0
652686,1
652730,0
652954,1
652990,0
653203,1
653247,0
653463,1
653501,0
653717,1
653754,0
653975,1
654026,0
654230,1
654278,0
654489,1
654535,0
654756,1
654800,0
655012,1
655052,0
655270,1
655311,0
655539,1
655574,0
655791,1
655819,0
656047,1
656078,0
656302,1
656342,0
656559,1
656603,0
656812,1
656857,0
657084,1
657117,0
657333,1
657379,0
657587,1
657628,0
657848,1
657893,0
658100,1
658146,0
658362,1
658414,0
658625,1
658661,0
658877,1
658920,0
659136,1
659179,0
659391,1
659437,0
659654,1
659691,0
659908,1
659954,0
660183,1
660221,0
660429,1
660470,0
660688,1
660733,0
660938,1
660992,0
661206,1
661242,0
661470,1
661499,0
661720,1
661770,0
661976,1
662022,0
662235,1
662282,0
662497,1
662533,0
662760,1
662798,0
663023,1
663055,0
663269,1
663314,0
663529,1
663562,0
663786,1
663824,0
664047,1
664080,0
664301,1
664340,0
664563,1
664601,0
664816,1
664861,0
665078,1
665117,0
665335,1
665372,0
665606,1
665641,0
665864,1
665886,0
666110,1
666148,0
666364,1
666403,0
666625,1
666668,0
666883,1
666921,0
667146,1
667179,0
667402,1
667437,0
667656,1
667691,0
667918,1
667929,0
668174,1
668207,0
668450,1
668464,0
668692,1
668729,0
668944,1
668991,0
669219,1
669242,0
669478,1
669496,0
669739,1
669752,0
669987,1
670009,0
670251,1
670276,0
670504,1
670527,0
670754,1
670787,0
671021,1
671047,0
671278,1
671311,0
671535,1
671571,0
671790,1
671818,0
672562,1
672593,0
672827,1
672854,0
673087,1
673095,0
673096,1
673111,0
673351,1
673357,0
673850,1
673873,0
674112,1
674142,0
674372,1
674403,0
674638,1
674657,0
675667,1
675688,0
675921,1
675941,0
676975,1
676976,0
677206,1
677225,0
677999,1
678011,0
679016,1
679023,0
729077,1
729096,0
730372,1
730390,0
733219,1
733234,0
733483,1
733498,0
733742,1
733750,0
734767,1
734774,0
736322,1
736336,0
737595,1
737628,0
738117,1
738131,0
738385,1
738401,0
738895,1
738920,0
739156,1
739182,0
739672,1
739687,0
739941,1
739953,0
740970,1
740985,0
741215,1
741243,0
741471,1
741492,0
741728,1
741764,0
741986,1
742016,0
742246,1
742262,0
742765,1
742769,0
743027,1
743045,0
743279,1
743292,0
744041,1
744074,0
744308,1
744329,0
744588,1
744600,0
744816,1
744847,0
745084,1
745098,0
745344,1
745361,0
745603,1
745617,0
745872,1
745872,0
746112,1
746124,0
746634,1
746662,0
747412,1
747432,0
748175,1
748213,0
748440,1
748470,0
748705,1
748717,0
748952,1
748979,0
749204,1
749234,0
749475,1
749500,0
749746,1
749759,0
749994,1
750015,0
750251,1
750276,0
750496,1
750529,0
750775,1
750793,0
751018,1
751044,0
751535,1
751562,0
751790,1
751822,0
752045,1
752082,0
752314,1
752340,0
752558,1
752591,0
752821,1
752856,0
753082,1
753111,0
753348,1
753377,0
753855,1
753889,0
754111,1
754150,0
754374,1
754398,0
754883,1
754923,0
755147,1
755184,0
755397,1
755435,0
755687,1
755691,0
755927,1
755941,0
756171,1
756214,0
756439,1
756470,0
756696,1
756725,0
756961,1
756987,0
757201,1
757247,0
757471,1
757505,0
757728,1
757754,0
757976,1
758019,0
758242,1
758270,0
758507,1
758538,0
758761,1
758788,0
759014,1
759051,0
759276,1
759302,0
759530,1
759568,0
759786,1
759828,0
760051,1
760084,0
760298,1
760338,0
760563,1
760602,0
760819,1
760856,0
761074,1
761114,0
761335,1
761372,0
761592,1
761626,0
761845,1
761877,0
762119,1
762147,0
762365,1
762403,0
762630,1
762657,0
762886,1
762908,0
763136,1
763180,0
763400,1
763444,0
763663,1
763694,0
763915,1
763951,0
764170,1
764214,0
764435,1
764466,0
764687,1
764731,0
764945,1
764990,0
765209,1
765245,0
765458,1
765503,0
765738,1
765762,0
765977,1
766007,0
766238,1
766279,0
766501,1
766541,0
766755,1
766793,0
767014,1
767053,0
767271,1
767311,0
767529,1
767564,0
767783,1
767819,0
768040,1
768086,0
768310,1
768344,0
768557,1
768602,0
768814,1
768860,0
769083,1
769122,0
769330,1
769381,0
769594,1
769632,0
769846,1
769884,0
770108,1
770143,0
770370,1
770409,0
770625,1
770669,0
770877,1
770918,0
771136,1
771186,0
771399,1
771437,0
771656,1
771696,0
771915,1
771950,0
772172,1
772216,0
772435,1
772469,0
772683,1
772732,0
772945,1
772986,0
773202,1
773244,0
773465,1
773502,0
773724,1
773762,0
773976,1
774020,0
774239,1
774280,0
774497,1
774538,0
774746,1
774805,0
775018,1
775053,0
775268,1
775312,0
775523,1
775563,0
775781,1
775828,0
776042,1
776087,0
776311,1
776343,0
776559,1
776600,0
776826,1
776856,0
777078,1
777117,0
777336,1
777377,0
777588,1
777623,0
777849,1
777889,0
778104,1
778158,0
778361,1
778407,0
778627,1
778661,0
778883,1
778925,0
779143,1
779184,0
779401,1
779439,0
779655,1
779702,0
779912,1
779960,0
780175,1
780216,0
780436,1
780474,0
780692,1
780735,0
780945,1
780988,0
781207,1
781245,0
781469,1
781508,0
781723,1
781769,0
781983,1
782026,0
782238,1
782285,0
782495,1
782532,0
782747,1
782793,0
783004,1
783053,0
783266,1
783314,0
783534,1
783564,0
783780,1
783831,0
784049,1
784080,0
784296,1
784344,0
784554,1
784604,0
784816,1
784862,0
785075,1
785112,0
785337,1
785379,0
785596,1
785639,0
785846,1
785888,0
786107,1
786152,0
786367,1
786404,0
786619,1
786661,0
786879,1
786923,0
787143,1
787181,0
787395,1
787439,0
787658,1
787695,0
787916,1
787961,0
788173,1
788219,0
788436,1
788479,0
788687,1
788734,0
788948,1
788992,0
789204,1
789250,0
789457,1
789503,0
789722,1
789766,0
789979,1
790019,0
790239,1
790275,0
790499,1
790538,0
790750,1
790797,0
791011,1
791058,0
791285,1
791315,0
791522,1
791566,0
791785,1
791833,0
792040,1
792084,0
792299,1
792347,0
792565,1
792600,0
792815,1
792859,0
793073,1
793122,0
793332,1
793377,0
793593,1
793638,0
793847,1
793894,0
794105,1
794155,0
794366,1
794416,0
794626,1
794659,0
794877,1
794924,0
795140,1
795181,0
795407,1
795440,0
795654,1
795707,0
795916,1
795960,0
796171,1
796218,0
796430,1
796473,0
796685,1
796726,0
796942,1
796990,0
797201,1
797246,0
797460,1
797505,0
797715,1
797770,0
797972,1
798024,0
798235,1
798283,0
798499,1
798529,0
798754,1
798797,0
799007,1
799050,0
799269,1
799311,0
799523,1
799562,0
799788,1
799830,0
800038,1
800085,0
800306,1
800339,0
800555,1
800605,0
800821,1
800863,0
801078,1
801119,0
801326,1
801376,0
801605,1
801626,0
801854,1
801892,0
802110,1
802151,0
802363,1
802410,0
802626,1
802667,0
802884,1
802922,0
803137,1
803187,0
803401,1
803444,0
803659,1
803697,0
803914,1
803961,0
804166,1
804215,0
804436,1
804472,0
804688,1
804728,0
804950,1
804985,0
805202,1
805247,0
805462,1
805509,0
805722,1
805761,0
805975,1
806025,0
806239,1
806284,0
806501,1
806540,0
806756,1
806796,0
807008,1
807048,0
807267,1
807312,0
807529,1
807567,0
807775,1
807834,0
808044,1
808092,0
808307,1
808344,0
808557,1
808602,0
808822,1
808868,0
809070,1
809117,0
809335,1
809372,0
809583,1
809631,0
809842,1
809893,0
810107,1
810149,0
810371,1
810412,0
810625,1
810665,0
810882,1
810928,0
811136,1
811182,0
811405,1
811439,0
811650,1
811698,0
811912,1
811957,0
812174,1
812210,0
812425,1
812472,0
812690,1
812722,0
812941,1
812990,0
813203,1
813254,0
813463,1
813507,0
813721,1
813762,0
813977,1
814008,0
814234,1
814279,0
814491,1
814539,0
814748,1
814796,0
815009,1
815056,0
815264,1
815313,0
815528,1
815573,0
815780,1
815826,0
816049,1
816090,0
816304,1
816345,0
816562,1
816595,0
816817,1
816859,0
817075,1
817121,0
817330,1
817379,0
817590,1
817632,0
817852,1
817900,0
818106,1
818153,0
818366,1
818406,0
818620,1
818673,0
818887,1
818928,0
819135,1
819186,0
819397,1
819444,0
819665,1
819701,0
819918,1
819950,0
820174,1
820218,0
820438,1
820476,0
820690,1
820729,0
820950,1
820989,0
821207,1
821240,0
821457,1
821511,0
821720,1
821761,0
821984,1
822022,0
822235,1
822282,0
822488,1
822535,0
822751,1
822795,0
823014,1
823053,0
823270,1
823312,0
823532,1
823564,0
823788,1
823829,0
824052,1
824085,0
824297,1
824342,0
824559,1
824604,0
824816,1
824854,0
825077,1
825115,0
825332,1
825379,0
825591,1
825636,0
825863,1
825881,0
826106,1
826145,0
826362,1
826411,0
826625,1
826660,0
826883,1
826927,0
827142,1
827182,0
827400,1
827434,0
827662,1
827696,0
827906,1
827951,0
828176,1
828207,0
828432,1
828470,0
828692,1
828726,0
828945,1
828990,0
829207,1
829245,0
829460,1
829506,0
829719,1
829760,0
829981,1
830021,0
830233,1
830277,0
830498,1
830537,0
830752,1
830792,0
831027,1
831055,0
831265,1
831308,0
831524,1
831565,0
831786,1
831813,0
832042,1
832088,0
832301,1
832338,0
832555,1
832599,0
832814,1
832863,0
833085,1
833119,0
833330,1
833377,0
833603,1
833631,0
833845,1
833895,0
834102,1
834147,0
834374,1
834407,0
834632,1
834665,0
834879,1
834925,0
835144,1
835182,0
835398,1
835440,0
835658,1
835697,0
835916,1
835956,0
836176,1
836217,0
836435,1
836472,0
836688,1
836735,0
836944,1
836986,0
837207,1
837243,0
837458,1
837501,0
837721,1
837760,0
837970,1
838019,0
838236,1
838281,0
838490,1
838537,0
838749,1
838792,0
839015,1
839053,0
839270,1
839314,0
839531,1
839569,0
839787,1
839830,0
840049,1
840085,0
840303,1
840344,0
840559,1
840598,0
840819,1
840852,0
841071,1
841116,0
841338,1
841358,0
841592,1
841633,0
841843,1
841892,0
842106,1
842150,0
842370,1
842402,0
842623,1
842668,0
842886,1
842916,0
843145,1
843176,0
843396,1
843439,0
843647,1
843695,0
843919,1
843964,0
844169,1
844217,0
844433,1
844477,0
844689,1
844729,0
844955,1
844986,0
845206,1
845243,0
845470,1
845508,0
845727,1
845765,0
845973,1
846022,0
846236,1
846272,0
846492,1
846538,0
846755,1
846795,0
847010,1
847047,0
847270,1
847314,0
847534,1
847557,0
847781,1
847826,0
848065,1
848082,0
848297,1
848336,0
848558,1
848595,0
848815,1
848854,0
849093,1
849125,0
849339,1
849376,0
849587,1
849631,0
849854,1
849885,0
850111,1
850146,0
850359,1
850400,0
850619,1
850666,0
850881,1
850921,0
851141,1
851180,0
851393,1
851438,0
851666,1
851703,0
851921,1
851955,0
852174,1
852213,0
852431,1
852472,0
852690,1
852729,0
852947,1
852987,0
853201,1
853241,0
853473,1
853479,0
853481,1
853501,0
853713,1
853762,0
853982,1
854022,0
854238,1
854280,0
854494,1
854530,0
854754,1
854790,0
855018,1
855043,0
855271,1
855311,0
855523,1
855568,0
855784,1
855823,0
856039,1
856089,0
856298,1
856340,0
856812,1
856852,0
857082,1
857118,0
857340,1
857376,0
857603,1
857615,0
857621,1
857637,0
857865,1
857883,0
858120,1
858147,0
858360,1
858413,0
858618,1
858663,0
858880,1
858924,0
859135,1
859173,0
859401,1
859442,0
859658,1
859700,0
859915,1
859938,0
860170,1
860204,0
860430,1
860474,0
860692,1
860694,0
860696,1
860725,0
860950,1
860990,0
861207,1
861249,0
861464,1
861506,0
861719,1
861759,0
861997,1
862014,0
862234,1
862266,0
862493,1
862535,0
862754,1
862794,0
863017,1
863056,0
863265,1
863305,0
863530,1
863566,0
863793,1
863830,0
864047,1
864082,0
864303,1
864324,0
864559,1
864601,0
864820,1
864851,0
865082,1
865122,0
865331,1
865364,0
865590,1
865628,0
865854,1
865884,0
866105,1
866145,0
866377,1
866407,0
866626,1
866643,0
866888,1
866916,0
867137,1
867156,0
867156,1
867169,0
867404,1
867432,0
867663,1
867698,0
867913,1
867948,0
868189,1
868198,0
868443,1
868468,0
868690,1
868732,0
868953,1
868980,0
869207,1
869224,0
869471,1
869507,0
869723,1
869758,0
869984,1
870019,0
870245,1
870268,0
870524,1
870528,0
870768,1
870787,0
871014,1
871044,0
871278,1
871304,0
871530,1
871563,0
871796,1
871820,0
872058,1
872073,0
872306,1
872332,0
872575,1
872597,0
872847,1
872850,0
873357,1
873368,0
874383,1
874390,0
874889,1
874909,0
875147,1
875168,0
875410,1
875436,0
875924,1
875939,0
876717,1
876724,0
927536,1
927544,0
930116,1
930130,0
930896,1
930916,0
933218,1
933223,0
934772,1
934781,0
935296,1
935307,0
935531,1
935552,0
936054,1
936074,0
936319,1
936326,0
936571,1
936585,0
937355,1
937365,0
937612,1
937613,0
937854,1
937869,0
938631,1
938666,0
939150,1
939163,0
939400,1
939424,0
939667,1
939687,0
939940,1
939940,0
940443,1
940465,0
940698,1
940705,0
941723,1
941757,0
941992,1
942000,0
942244,1
942271,0
942769,1
942789,0
943278,1
943303,0
943534,1
943552,0
943800,1
943820,0
944055,1
944075,0
944300,1
944334,0
945086,1
945110,0
945352,1
945369,0
945851,1
945886,0
946121,1
946143,0
946379,1
946402,0
946627,1
946659,0
946897,1
946914,0
947157,1
947168,0
948181,1
948208,0
948435,1
948454,0
948695,1
948725,0
949219,1
949240,0
949735,1
949743,0
949988,1
950021,0
950251,1
950276,0
950762,1
950788,0
951017,1
951049,0
951282,1
951304,0
951530,1
951559,0
951795,1
951810,0
952053,1
952082,0
952316,1
952344,0
952565,1
952594,0
952827,1
952861,0
953086,1
953104,0
953337,1
953370,0
953591,1
953632,0
953859,1
953886,0
954108,1
954151,0
954373,1
954401,0
954627,1
954657,0
954886,1
954917,0
955142,1
955173,0
955399,1
955408,0
955409,1
955431,0
955656,1
955691,0
955916,1
955950,0
956183,1
956199,0
956201,1
956213,0
956449,1
956470,0
956705,1
956721,0
956963,1
956982,0
957208,1
957219,0
957231,1
957250,0
957473,1
957492,0
957723,1
957755,0
957980,1
958018,0
958246,1
958269,0
958498,1
958530,0
958774,1
958789,0
959015,1
959048,0
959277,1
959311,0
959529,1
959565,0
959791,1
959825,0
960045,1
960088,0
960311,1
960341,0
960567,1
960596,0
960824,1
960855,0
961086,1
961114,0
961343,1
961373,0
961593,1
961629,0
961848,1
961878,0
962121,1
962151,0
962372,1
962399,0
962630,1
962668,0
962893,1
962912,0
963148,1
963173,0
963400,1
963430,0
963660,1
963692,0
963936,1
963937,0
964178,1
964211,0
964437,1
964467,0
964700,1
964733,0
965215,1
965245,0
965476,1
965501,0
965727,1
965748,0
965981,1
966014,0
966240,1
966276,0
966501,1
966525,0
966748,1
966771,0
967014,1
967042,0
967274,1
967304,0
967532,1
967564,0
967785,1
967827,0
968040,1
968084,0
968310,1
968336,0
968558,1
968597,0
968820,1
968858,0
969078,1
969114,0
969344,1
969368,0
969592,1
969630,0
969849,1
969889,0
970106,1
970149,0
970368,1
970408,0
970626,1
970655,0
970885,1
970919,0
971141,1
971176,0
971402,1
971430,0
971663,1
971695,0
971917,1
971958,0
972174,1
972212,0
972426,1
972470,0
972712,1
972718,0
972943,1
972983,0
973200,1
973231,0
973469,1
973504,0
973726,1
973760,0
973983,1
974012,0
974243,1
974283,0
974503,1
974537,0
974750,1
974790,0
975012,1
975050,0
975269,1
975306,0
975541,1
975573,0
975781,1
975824,0
976053,1
976058,0
976291,1
976340,0
976563,1
976600,0
976845,1
976850,0
977079,1
977115,0
977329,1
977372,0
977598,1
977642,0
977854,1
977870,0
978101,1
978143,0
978367,1
978393,0
978623,1
978667,0
978886,1
978919,0
979144,1
979183,0
979397,1
979435,0
979659,1
979681,0
979912,1
979960,0
980183,1
980199,0
980444,1
980464,0
980690,1
980733,0
980943,1
980986,0
981207,1
981237,0
981463,1
981506,0
981726,1
981755,0
981978,1
982019,0
982237,1
982283,0
982493,1
982534,0
982758,1
982796,0
983009,1
983058,0
983269,1
983312,0
983530,1
983569,0
983793,1
983824,0
984045,1
984091,0
984308,1
984338,0
984558,1
984598,0
984815,1
984859,0
985073,1
985115,0
985345,1
985377,0
985595,1
985631,0
985854,1
985891,0
986106,1
986155,0
986367,1
986411,0
986620,1
986667,0
986882,1
986921,0
987151,1
987185,0
987402,1
987440,0
987667,1
987693,0
987912,1
987959,0
988167,1
988214,0
988434,1
988474,0
988687,1
988727,0
988955,1
988990,0
989201,1
989248,0
989462,1
989508,0
989723,1
989759,0
989988,1
990022,0
990241,1
990280,0
990494,1
990533,0
990755,1
990800,0
991007,1
991053,0
991269,1
991315,0
991529,1
991570,0
991792,1
991820,0
992043,1
992091,0
992298,1
992343,0
992563,1
992602,0
992812,1
992859,0
993075,1
993124,0
993328,1
993374,0
993591,1
993634,0
993847,1
993890,0
994111,1
994147,0
994368,1
994406,0
994624,1
994672,0
994881,1
994924,0
995139,1
995176,0
995405,1
995445,0
995659,1
995697,0
995916,1
995956,0
996175,1
996217,0
996430,1
996472,0
996688,1
996732,0
996938,1
996987,0
997210,1
997243,0
997467,1
997498,0
997716,1
997763,0
997977,1
998015,0
998237,1
998274,0
998490,1
998530,0
998754,1
998793,0
999008,1
999047,0
999270,1
999317,0
999525,1
999571,0
999786,1
999821,0
1000042,1
1000080,0
1000302,1
1000341,0
1000556,1
1000603,0
1000819,1
1000860,0
1001072,1
1001118,0
1001335,1
1001375,0
1001590,1
1001634,0
1001857,1
1001893,0
1002109,1
1002155,0
1002368,1
1002409,0
1002629,1
1002660,0
1002889,1
1002924,0
1003134,1
1003173,0
1003395,1
1003441,0
1003650,1
1003690,0
1003918,1
1003954,0
1004169,1
1004200,0
1004431,1
1004477,0
1004684,1
1004727,0
1004955,1
1004990,0
1005202,1
1005249,0
1005465,1
1005502,0
1005717,1
1005755,0
1005979,1
1006016,0
1006233,1
1006281,0
1006498,1
1006535,0
1006757,1
1006801,0
1007009,1
1007055,0
1007264,1
1007307,0
1007531,1
1007564,0
1007790,1
1007833,0
1008048,1
1008085,0
1008299,1
1008341,0
1008555,1
1008599,0
1008816,1
1008858,0
1009069,1
1009114,0
1009341,1
1009375,0
1009593,1
1009637,0
1009851,1
1009891,0
1010112,1
1010151,0
1010364,1
1010412,0
1010630,1
1010655,0
1010882,1
1010927,0
1011142,1
1011179,0
1011396,1
1011446,0
1011663,1
1011700,0
1011913,1
1011961,0
1012173,1
1012215,0
1012429,1
1012469,0
1012686,1
1012728,0
1012942,1
1012969,0
1013206,1
1013245,0
1013473,1
1013503,0
1013720,1
1013763,0
1013977,1
1014024,0
1014233,1
1014276,0
1014499,1
1014539,0
1014757,1
1014782,0
1015014,1
1015055,0
1015260,1
1015313,0
1015541,1
1015566,0
1015778,1
1015826,0
1016043,1
1016091,0
1016295,1
1016339,0
1016561,1
1016604,0
1016823,1
1016863,0
1017075,1
1017120,0
1017338,1
1017368,0
1017590,1
1017607,0
1017616,1
1017640,0
1017852,1
1017896,0
1018101,1
1018132,0
1018364,1
1018410,0
1018635,1
1018669,0
1018883,1
1018924,0
1019136,1
1019180,0
1019394,1
1019446,0
1019662,1
1019700,0
1019917,1
1019953,0
1020179,1
1020200,0
1020430,1
1020477,0
1020691,1
1020732,0
1020952,1
1020994,0
1021208,1
1021242,0
1021462,1
1021502,0
1021720,1
1021763,0
1021976,1
1022016,0
1022238,1
1022282,0
1022495,1
1022539,0
1022754,1
1022797,0
1023021,1
1023053,0
1023271,1
1023316,0
1023522,1
1023566,0
1023791,1
1023830,0
1024043,1
1024083,0
1024303,1
1024335,0
1024561,1
1024598,0
1024813,1
1024859,0
1025076,1
1025117,0
1025336,1
1025375,0
1025593,1
1025633,0
1025851,1
1025890,0
1026108,1
1026141,0
1026363,1
1026411,0
1026627,1
1026664,0
1026883,1
1026928,0
1027141,1
1027183,0
1027396,1
1027442,0
1027657,1
1027695,0
1027916,1
1027945,0
1028173,1
1028219,0
1028427,1
1028468,0
1028692,1
1028735,0
1028953,1
1028988,0
1029210,1
1029251,0
1029458,1
1029507,0
1029718,1
1029765,0
1029977,1
1030016,0
1030242,1
1030279,0
1030501,1
1030523,0
1030751,1
1030790,0
1031021,1
1031055,0
1031272,1
1031316,0
1031534,1
1031572,0
1031782,1
1031827,0
1032040,1
1032093,0
1032305,1
1032348,0
1032569,1
1032599,0
1032825,1
1032841,0
1033081,1
1033118,0
1033332,1
1033376,0
1033597,1
1033638,0
1033852,1
1033890,0
1034106,1
1034142,0
1034372,1
1034412,0
1034624,1
1034667,0
1034884,1
1034926,0
1035133,1
1035180,0
1035398,1
1035431,0
1035648,1
1035694,0
1035914,1
1035958,0
1036173,1
1036215,0
1036431,1
1036474,0
1036690,1
1036727,0
1036944,1
1036989,0
1037208,1
1037246,0
1037466,1
1037505,0
1037721,1
1037760,0
1037980,1
1038009,0
1038234,1
1038275,0
1038495,1
1038540,0
1038752,1
1038785,0
1039008,1
1039054,0
1039275,1
1039313,0
1039531,1
1039576,0
1039790,1
1039833,0
1040051,1
1040081,0
1040294,1
1040343,0
1040568,1
1040570,0
1040574,1
1040606,0
1040822,1
1040864,0
1041080,1
1041118,0
1041343,1
1041381,0
1041594,1
1041637,0
1041851,1
1041898,0
1042111,1
1042141,0
1042367,1
1042414,0
1042631,1
1042665,0
1042887,1
1042921,0
1043142,1
1043180,0
1043395,1
1043429,0
1043658,1
1043686,0
1043920,1
1043953,0
1044175,1
1044217,0
1044429,1
1044476,0
1044691,1
1044739,0
1044946,1
1044987,0
1045213,1
1045244,0
1045464,1
1045506,0
1045720,1
1045759,0
1045980,1
1046022,0
1046243,1
1046284,0
1046491,1
1046534,0
1046762,1
1046792,0
1047020,1
1047056,0
1047270,1
1047317,0
1047529,1
1047568,0
1047798,1
1047825,0
1048048,1
1048086,0
1048298,1
1048346,0
1048565,1
1048604,0
1048824,1
1048862,0
1049075,1
1049114,0
1049329,1
1049361,0
1049590,1
1049640,0
1049850,1
1049897,0
1050118,1
1050153,0
1050371,1
1050402,0
1050625,1
1050669,0
1050882,1
1050921,0
1051141,1
1051175,0
1051402,1
1051444,0
1051652,1
1051694,0
1051911,1
1051949,0
1052174,1
1052215,0
1052432,1
1052475,0
1052694,1
1052735,0
1052952,1
1052996,0
1053204,1
1053247,0
1053461,1
1053506,0
1053714,1
1053761,0
1053985,1
1054007,0
1054237,1
1054277,0
1054495,1
1054541,0
1054752,1
1054768,0
1055013,1
1055043,0
1055266,1
1055307,0
1055521,1
1055577,0
1055782,1
1055825,0
1056044,1
1056088,0
1056309,1
1056335,0
1056567,1
1056599,0
1056820,1
1056859,0
1057077,1
1057115,0
1057345,1
1057380,0
1057599,1
1057635,0
1057851,1
1057892,0
1058111,1
1058151,0
1058356,1
1058407,0
1058618,1
1058662,0
1058894,1
1058912,0
1059140,1
1059178,0
1059400,1
1059435,0
1059657,1
1059696,0
1059918,1
1059961,0
1060174,1
1060214,0
1060434,1
1060476,0
1060689,1
1060732,0
1060947,1
1060993,0
1061204,1
1061245,0
1061466,1
1061505,0
1061723,1
1061761,0
1061975,1
1062005,0
1062241,1
1062275,0
1062492,1
1062539,0
1062757,1
1062784,0
1063010,1
1063055,0
1063270,1
1063313,0
1063531,1
1063566,0
1063797,1
1063830,0
1064051,1
1064082,0
1064299,1
1064341,0
1064569,1
1064601,0
1064818,1
1064850,0
1065080,1
1065122,0
1065337,1
1065381,0
1065595,1
1065637,0
1065850,1
1065896,0
1066117,1
1066151,0
1066367,1
1066405,0
1066638,1
1066664,0
1066891,1
1066913,0
1067149,1
1067174,0
1067403,1
1067432,0
1067659,1
1067694,0
1067926,1
1067956,0
1068176,1
1068204,0
1068434,1
1068462,0
1068691,1
1068719,0
1068948,1
1068988,0
1069222,1
1069233,0
1069468,1
1069501,0
1069719,1
1069748,0
1069981,1
1070015,0
1070249,1
1070262,0
1070503,1
1070514,0
1070757,1
1070791,0
1071020,1
1071040,0
1071271,1
1071303,0
1071532,1
1071555,0
1071789,1
1071822,0
1072054,1
1072082,0
1072315,1
1072335,0
1072566,1
1072586,0
1072826,1
1072848,0
1073092,1
1073093,0
1073849,1
1073876,0
1074122,1
1074151,0
1074379,1
1074391,0
1074891,1
1074906,0
1075156,1
1075179,0
1075933,1
1075948,0
1077223,1
1077240,0
1079281,1
1079297,0
1123156,1
1123168,0
1123931,1
1123949,0
1126250,1
1126258,0
1130901,1
1130916,0
1131935,1
1131952,0
1132184,1
1132184,0
1132963,1
1132971,0
1133740,1
1133740,0
1135024,1
1135043,0
1135544,1
1135561,0
1137600,1
1137621,0
1137859,1
1137876,0
1138389,1
1138401,0
1138629,1
1138649,0
1139415,1
1139421,0
1139663,1
1139685,0
1140705,1
1140726,0
1142252,1
1142268,0
1142767,1
1142778,0
1143279,1
1143291,0
1143545,1
1143552,0
1143804,1
1143812,0
1144050,1
1144063,0
1144568,1
1144589,0
1144822,1
1144851,0
1145865,1
1145882,0
1146111,1
1146126,0
1146391,1
1146402,0
1146887,1
1146917,0
1147405,1
1147441,0
1147662,1
1147684,0
1148453,1
1148474,0
1148709,1
1148722,0
1148958,1
1148989,0
1149214,1
1149230,0
1149474,1
1149495,0
1149737,1
1149757,0
1150240,1
1150248,0
1150507,1
1150531,0
1151022,1
1151045,0
1151280,1
1151303,0
1151551,1
1151555,0
1151794,1
1151814,0
1152059,1
1152087,0
1152313,1
1152341,0
1152561,1
1152591,0
1152822,1
1152854,0
1153086,1
1153090,0
1153099,1
1153110,0
1153334,1
1153363,0
1153595,1
1153631,0
1153868,1
1153882,0
1154112,1
1154125,0
1154373,1
1154399,0
1154636,1
1154658,0
1154893,1
1154914,0
1155150,1
1155174,0
1155408,1
1155427,0
1155670,1
1155698,0
1155924,1
1155959,0
1156178,1
1156211,0
1156435,1
1156471,0
1156692,1
1156733,0
1157205,1
1157241,0
1157466,1
1157502,0
1157735,1
1157758,0
1157978,1
1158021,0
1158242,1
1158276,0
1158504,1
1158531,0
1158760,1
1158785,0
1159011,1
1159048,0
1159286,1
1159315,0
1159539,1
1159565,0
1159791,1
1159821,0
1160313,1
1160340,0
1160565,1
1160594,0
1160826,1
1160857,0
1161081,1
1161115,0
1161594,1
1161635,0
1161856,1
1161876,0
1162363,1
1162406,0
1162624,1
1162652,0
1162901,1
1162908,0
1163150,1
1163178,0
1163403,1
1163438,0
1163658,1
1163700,0
1163913,1
1163950,0
1164171,1
1164213,0
1164450,1
1164470,0
1164684,1
1164723,0
1164945,1
1164987,0
1165214,1
1165229,0
1165463,1
1165488,0
1165725,1
1165756,0
1165986,1
1166015,0
1166240,1
1166268,0
1166503,1
1166534,0
1166753,1
1166788,0
1167019,1
1167046,0
1167281,1
1167311,0
1167532,1
1167570,0
1167791,1
1167829,0
1168053,1
1168089,0
1168308,1
1168341,0
1168565,1
1168600,0
1168823,1
1168859,0
1169098,1
1169120,0
1169338,1
1169375,0
1169604,1
1169630,0
1169851,1
1169879,0
1170122,1
1170149,0
1170371,1
1170409,0
1170635,1
1170657,0
1170882,1
1170921,0
1171158,1
1171172,0
1171401,1
1171430,0
1171663,1
1171699,0
1171912,1
1171955,0
1172175,1
1172219,0
1172438,1
1172475,0
1172694,1
1172735,0
1172944,1
1172991,0
1173217,1
1173243,0
1173468,1
1173501,0
1173727,1
1173752,0
1173992,1
1174008,0
1174240,1
1174275,0
1174495,1
1174537,0
1174755,1
1174788,0
1175017,1
1175049,0
1175287,1
1175307,0
1175525,1
1175567,0
1175796,1
1175824,0
1176054,1
1176081,0
1176305,1
1176340,0
1176565,1
1176586,0
1176828,1
1176862,0
1177083,1
1177113,0
1177326,1
1177375,0
1177593,1
1177633,0
1177852,1
1177885,0
1178112,1
1178149,0
1178361,1
1178408,0
1178624,1
1178669,0
1178886,1
1178925,0
1179135,1
1179177,0
1179399,1
1179432,0
1179659,1
1179695,0
1179919,1
1179960,0
1180178,1
1180213,0
1180434,1
1180473,0
1180692,1
1180715,0
1180945,1
1180986,0
1181207,1
1181247,0
1181467,1
1181505,0
1181721,1
1181762,0
1181984,1
1182021,0
1182238,1
1182278,0
1182491,1
1182545,0
1182757,1
1182789,0
1183014,1
1183044,0
1183267,1
1183315,0
1183528,1
1183569,0
1183779,1
1183826,0
1184046,1
1184083,0
1184293,1
1184341,0
1184568,1
1184594,0
1184817,1
1184854,0
1185073,1
1185114,0
1185342,1
1185375,0
1185594,1
1185634,0
1185853,1
1185880,0
1186103,1
1186154,0
1186370,1
1186409,0
1186619,1
1186654,0
1186887,1
1186919,0
1187139,1
1187185,0
1187396,1
1187440,0
1187659,1
1187692,0
1187912,1
1187957,0
1188176,1
1188213,0
1188433,1
1188477,0
1188689,1
1188732,0
1188946,1
1188984,0
1189207,1
1189242,0
1189459,1
1189503,0
1189718,1
1189759,0
1189974,1
1190017,0
1190245,1
1190271,0
1190492,1
1190536,0
1190748,1
1190793,0
1191010,1
1191053,0
1191268,1
1191313,0
1191526,1
1191565,0
1191779,1
1191829,0
1192045,1
1192091,0
1192304,1
1192340,0
1192559,1
1192600,0
1192818,1
1192856,0
1193074,1
1193121,0
1193334,1
1193378,0
1193595,1
1193637,0
1193847,1
1193887,0
1194104,1
1194145,0
1194374,1
1194403,0
1194625,1
1194667,0
1194883,1
1194923,0
1195138,1
1195171,0
1195399,1
1195432,0
1195658,1
1195698,0
1195917,1
1195956,0
1196166,1
1196216,0
1196426,1
1196478,0
1196687,1
1196733,0
1196953,1
1196980,0
1197203,1
1197249,0
1197468,1
1197508,0
1197717,1
1197770,0
1197976,1
1198021,0
1198233,1
1198282,0
1198496,1
1198535,0
1198754,1
1198792,0
1199008,1
1199052,0
1199274,1
1199311,0
1199529,1
1199577,0
1199780,1
1199829,0
1200041,1
1200085,0
1200311,1
1200347,0
1200558,1
1200606,0
1200816,1
1200855,0
1201069,1
1201113,0
1201334,1
1201380,0
1201588,1
1201635,0
1201847,1
1201890,0
1202108,1
1202150,0
1202364,1
1202407,0
1202620,1
1202670,0
1202879,1
1202916,0
1203139,1
1203185,0
1203398,1
1203442,0
1203658,1
1203701,0
1203915,1
1203961,0
1204172,1
1204213,0
1204444,1
1204476,0
1204694,1
1204726,0
1204942,1
1204986,0
1205198,1
1205249,0
1205464,1
1205505,0
1205720,1
1205761,0
1205973,1
1206024,0
1206240,1
1206278,0
1206488,1
1206541,0
1206754,1
1206798,0
1207010,1
1207058,0
1207267,1
1207315,0
1207526,1
1207573,0
1207784,1
1207819,0
1208053,1
1208087,0
1208301,1
1208341,0
1208558,1
1208603,0
1208813,1
1208857,0
1209072,1
1209118,0
1209336,1
1209373,0
1209591,1
1209633,0
1209855,1
1209889,0
1210111,1
1210157,0
1210359,1
1210403,0
1210619,1
1210668,0
1210883,1
1210923,0
1211137,1
1211181,0
1211391,1
1211435,0
1211657,1
1211702,0
1211915,1
1211950,0
1212178,1
1212210,0
1212432,1
1212476,0
1212688,1
1212725,0
1212942,1
1212983,0
1213202,1
1213250,0
1213460,1
1213501,0
1213725,1
1213765,0
1213983,1
1214025,0
1214239,1
1214280,0
1214492,1
1214541,0
1214745,1
1214788,0
1215009,1
1215059,0
1215274,1
1215314,0
1215524,1
1215566,0
1215787,1
1215827,0
1216041,1
1216084,0
1216306,1
1216339,0
1216559,1
1216603,0
1216815,1
1216859,0
1217081,1
1217124,0
1217336,1
1217375,0
1217595,1
1217636,0
1217845,1
1217897,0
1218111,1
1218150,0
1218363,1
1218408,0
1218623,1
1218666,0
1218887,1
1218930,0
1219141,1
1219187,0
1219401,1
1219439,0
1219655,1
1219698,0
1219922,1
1219962,0
1220169,1
1220219,0
1220433,1
1220474,0
1220696,1
1220735,0
1220942,1
1220988,0
1221206,1
1221251,0
1221464,1
1221510,0
1221720,1
1221761,0
1221970,1
1222016,0
1222236,1
1222276,0
1222491,1
1222528,0
1222752,1
1222798,0
1223012,1
1223060,0
1223266,1
1223312,0
1223526,1
1223568,0
1223780,1
1223820,0
1224042,1
1224082,0
1224304,1
1224342,0
1224564,1
1224609,0
1224824,1
1224861,0
1225072,1
1225112,0
1225340,1
1225380,0
1225587,1
1225637,0
1225846,1
1225893,0
1226110,1
1226145,0
1226369,1
1226410,0
1226621,1
1226667,0
1226892,1
1226923,0
1227137,1
1227177,0
1227396,1
1227438,0
1227655,1
1227700,0
1227912,1
1227960,0
1228179,1
1228217,0
1228432,1
1228476,0
1228691,1
1228736,0
1228945,1
1228988,0
1229205,1
1229244,0
1229459,1
1229513,0
1229724,1
1229763,0
1229981,1
1230028,0
1230233,1
1230276,0
1230500,1
1230539,0
1230748,1
1230796,0
1231015,1
1231049,0
1231267,1
1231299,0
1231528,1
1231564,0
1231784,1
1231826,0
1232038,1
1232084,0
1232305,1
1232342,0
1232559,1
1232601,0
1232813,1
1232860,0
1233075,1
1233111,0
1233331,1
1233378,0
1233594,1
1233636,0
1233849,1
1233891,0
1234109,1
1234152,0
1234364,1
1234408,0
1234627,1
1234664,0
1234882,1
1234924,0
1235135,1
1235184,0
1235397,1
1235440,0
1235658,1
1235694,0
1235912,1
1235958,0
1236176,1
1236196,0
1236432,1
1236475,0
1236689,1
1236727,0
1236947,1
1236992,0
1237214,1
1237251,0
1237468,1
1237514,0
1237722,1
1237764,0
1237975,1
1238018,0
1238237,1
1238267,0
1238494,1
1238540,0
1238754,1
1238786,0
1239005,1
1239052,0
1239277,1
1239310,0
1239522,1
1239571,0
1239787,1
1239829,0
1240054,1
1240081,0
1240308,1
1240346,0
1240557,1
1240605,0
1240819,1
1240860,0
1241067,1
1241121,0
1241331,1
1241371,0
1241588,1
1241634,0
1241849,1
1241888,0
1242109,1
1242154,0
1242364,1
1242412,0
1242625,1
1242664,0
1242889,1
1242925,0
1243144,1
1243179,0
1243396,1
1243445,0
1243663,1
1243697,0
1243919,1
1243956,0
1244172,1
1244212,0
1244427,1
1244473,0
1244692,1
1244734,0
1244948,1
1244984,0
1245205,1
1245242,0
1245467,1
1245510,0
1245735,1
1245755,0
1245973,1
1246023,0
1246235,1
1246277,0
1246496,1
1246526,0
1246750,1
1246792,0
1247009,1
1247050,0
1247272,1
1247304,0
1247529,1
1247565,0
1247788,1
1247833,0
1248040,1
1248088,0
1248303,1
1248341,0
1248562,1
1248602,0
1248823,1
1248852,0
1249075,1
1249120,0
1249336,1
1249372,0
1249591,1
1249630,0
1249847,1
1249884,0
1250106,1
1250147,0
1250366,1
1250414,0
1250626,1
1250667,0
1250891,1
1250927,0
1251136,1
1251180,0
1251405,1
1251436,0
1251648,1
1251706,0
1251919,1
1251961,0
1252175,1
1252212,0
1252429,1
1252474,0
1252685,1
1252728,0
1252947,1
1252987,0
1253196,1
1253249,0
1253460,1
1253504,0
1253725,1
1253759,0
1253978,1
1254021,0
1254248,1
1254274,0
1254491,1
1254534,0
1254751,1
1254792,0
1255008,1
1255057,0
1255276,1
1255310,0
1255526,1
1255574,0
1255790,1
1255827,0
1256049,1
1256084,0
1256304,1
1256343,0
1256562,1
1256596,0
1256824,1
1256845,0
1257077,1
1257113,0
1257335,1
1257374,0
1257590,1
1257631,0
1257845,1
1257886,0
1258107,1
1258145,0
1258367,1
1258408,0
1258628,1
1258665,0
1258883,1
1258927,0
1259142,1
1259173,0
1259398,1
1259436,0
1259663,1
1259694,0
1259907,1
1259958,0
1260176,1
1260216,0
1260430,1
1260474,0
1260690,1
1260727,0
1260948,1
1260986,0
1261207,1
1261240,0
1261481,1
1261495,0
1261723,1
1261766,0
1261978,1
1262023,0
1262234,1
1262281,0
1262512,1
1262535,0
1262754,1
1262792,0
1263017,1
1263046,0
1263268,1
1263313,0
1263537,1
1263563,0
1263788,1
1263834,0
1264059,1
1264091,0
1264303,1
1264318,0
1264571,1
1264592,0
1264816,1
1264852,0
1265073,1
1265116,0
1265341,1
1265367,0
1265594,1
1265635,0
1266111,1
1266156,0
1266363,1
1266409,0
1266628,1
1266660,0
1266883,1
1266914,0
1267147,1
1267181,0
1267408,1
1267431,0
1267662,1
1267692,0
1268185,1
1268207,0
1268430,1
1268464,0
1268692,1
1268712,0
1268948,1
1268980,0
1269205,1
1269228,0
1269471,1
1269497,0
1269727,1
1269761,0
1270008,1
1270008,0
1270243,1
1270273,0
1270521,1
1270536,0
1271271,1
1271304,0
1271800,1
1271826,0
1272582,1
1272597,0
1272825,1
1272858,0
1273084,1
1273112,0
1273341,1
1273362,0
1273862,1
1273875,0
1274373,1
1274400,0
1274891,1
1274918,0
1275156,1
1275177,0
1275410,1
1275430,0
1275923,1
1275938,0
1276961,1
1276978,0
1277465,1
1277473,0
1278249,1
1278271,0
1279539,1
1279548,0
1282131,1
1282133,0
1320573,1
1320585,0
1327285,1
1327292,0
1335028,1
1335040,0
1335277,1
1335298,0
1336836,1
1336861,0
1337088,1
1337107,0
1337614,1
1337626,0
1338126,1
1338138,0
1338632,1
1338646,0
1339147,1
1339165,0
1339673,1
1339692,0
1339929,1
1339943,0
1340183,1
1340199,0
1340455,1
1340457,0
1340714,1
1340721,0
1341220,1
1341223,0
1341474,1
1341506,0
1341743,1
1341745,0
1341998,1
1342005,0
1342240,1
1342264,0
1342519,1
1342521,0
1343021,1
1343050,0
1344568,1
1344585,0
1344828,1
1344850,0
1345087,1
1345114,0
1345359,1
1345363,0
1345603,1
1345610,0
1346385,1
1346389,0
1346638,1
1346657,0
1347141,1
1347155,0
1347662,1
1347683,0
1347932,1
1347950,0
1348180,1
1348200,0
1348689,1
1348717,0
1349214,1
1349239,0
1349472,1
1349493,0
1349982,1
1350004,0
1350240,1
1350265,0
1350511,1
1350524,0
1350765,1
1350785,0
1351022,1
1351048,0
1351271,1
1351305,0
1351539,1
1351551,0
1351798,1
1351807,0
1352043,1
1352065,0
1352320,1
1352334,0
1352561,1
1352599,0
1352820,1
1352846,0
1353080,1
1353110,0
1353359,1
1353367,0
1353862,1
1353873,0
1354128,1
1354148,0
1354380,1
1354401,0
1354629,1
1354661,0
1354886,1
1354926,0
1355143,1
1355176,0
1355665,1
1355694,0
1355924,1
1355961,0
1356432,1
1356474,0
1356700,1
1356732,0
1356959,1
1356972,0
1357213,1
1357237,0
1357462,1
1357498,0
1357731,1
1357748,0
1357986,1
1358009,0
1358237,1
1358279,0
1358498,1
1358532,0
1358747,1
1358784,0
1359007,1
1359052,0
1359277,1
1359309,0
1359531,1
1359558,0
1359788,1
1359818,0
1360042,1
1360076,0
1360307,1
1360332,0
1360561,1
1360600,0
1360816,1
1360844,0
1361077,1
1361113,0
1361339,1
1361373,0
1361600,1
1361624,0
1361853,1
1361890,0
1362117,1
1362153,0
1362365,1
1362402,0
1362635,1
1362659,0
1362887,1
1362919,0
1363150,1
1363172,0
1363403,1
1363440,0
1363656,1
1363696,0
1363914,1
1363953,0
1364180,1
1364204,0
1364435,1
1364464,0
1364696,1
1364728,0
1364955,1
1364977,0
1365209,1
1365233,0
1365467,1
1365484,0
1365723,1
1365744,0
1365984,1
1366017,0
1366242,1
1366277,0
1366502,1
1366537,0
1366758,1
1366788,0
1367009,1
1367045,0
1367276,1
1367309,0
1367522,1
1367564,0
1367794,1
1367822,0
1368047,1
1368082,0
1368303,1
1368337,0
1368560,1
1368605,0
1368822,1
1368857,0
1369075,1
1369104,0
1369335,1
1369373,0
1369599,1
1369634,0
1369854,1
1369895,0
1370107,1
1370148,0
1370364,1
1370399,0
1370625,1
1370664,0
1370879,1
1370919,0
1371149,1
1371181,0
1371397,1
1371438,0
1371655,1
1371694,0
1371918,1
1371959,0
1372176,1
1372203,0
1372430,1
1372444,0
1372450,1
1372475,0
1372683,1
1372725,0
1372955,1
1372990,0
1373207,1
1373245,0
1373462,1
1373506,0
1373724,1
1373764,0
1373978,1
1374023,0
1374255,1
1374274,0
1374500,1
1374528,0
1374754,1
1374791,0
1375039,1
1375047,0
1375271,1
1375301,0
1375532,1
1375547,0
1375784,1
1375834,0
1376040,1
1376082,0
1376298,1
1376340,0
1376570,1
1376597,0
1376817,1
1376859,0
1377079,1
1377107,0
1377328,1
1377370,0
1377594,1
1377639,0
1377845,1
1377890,0
1378106,1
1378153,0
1378370,1
1378402,0
1378624,1
1378673,0
1378882,1
1378919,0
1379144,1
1379181,0
1379397,1
1379434,0
1379665,1
1379692,0
1379925,1
1379956,0
1380184,1
1380220,0
1380427,1
1380472,0
1380687,1
1380727,0
1380953,1
1380991,0
1381203,1
1381245,0
1381469,1
1381501,0
1381722,1
1381765,0
1381986,1
1382018,0
1382238,1
1382277,0
1382496,1
1382534,0
1382759,1
1382795,0
1383014,1
1383051,0
1383275,1
1383316,0
1383537,1
1383562,0
1383791,1
1383822,0
1384048,1
1384088,0
1384306,1
1384346,0
1384567,1
1384598,0
1384816,1
1384851,0
1385070,1
1385109,0
1385326,1
1385379,0
1385597,1
1385632,0
1385851,1
1385893,0
1386107,1
1386146,0
1386367,1
1386414,0
1386626,1
1386664,0
1386885,1
1386889,0
1387139,1
1387187,0
1387399,1
1387435,0
1387653,1
1387694,0
1387918,1
1387957,0
1388178,1
1388213,0
1388435,1
1388471,0
1388690,1
1388731,0
1388949,1
1388992,0
1389209,1
1389242,0
1389464,1
1389506,0
1389721,1
1389757,0
1389979,1
1390019,0
1390243,1
1390281,0
1390498,1
1390543,0
1390754,1
1390792,0
1391008,1
1391041,0
1391269,1
1391297,0
1391531,1
1391565,0
1391784,1
1391837,0
1392048,1
1392078,0
1392298,1
1392345,0
1392563,1
1392604,0
1392824,1
1392862,0
1393081,1
1393118,0
1393332,1
1393374,0
1393588,1
1393632,0
1393844,1
1393894,0
1394112,1
1394154,0
1394373,1
1394413,0
1394623,1
1394660,0
1394888,1
1394925,0
1395155,1
1395170,0
1395395,1
1395436,0
1395656,1
1395699,0
1395921,1
1395958,0
1396170,1
1396208,0
1396432,1
1396464,0
1396688,1
1396726,0
1396949,1
1396992,0
1397207,1
1397243,0
1397457,1
1397502,0
1397727,1
1397765,0
1397970,1
1398020,0
1398238,1
1398272,0
1398495,1
1398536,0
1398767,1
1398799,0
1399010,1
1399055,0
1399273,1
1399315,0
1399536,1
1399569,0
1399781,1
1399823,0
1400046,1
1400088,0
1400311,1
1400330,0
1400557,1
1400601,0
1400815,1
1400855,0
1401072,1
1401114,0
1401337,1
1401381,0
1401593,1
1401629,0
1401851,1
1401889,0
1402107,1
1402155,0
1402367,1
1402402,0
1402622,1
1402672,0
1402879,1
1402918,0
1403138,1
1403175,0
1403400,1
1403431,0
1403651,1
1403700,0
1403917,1
1403960,0
1404170,1
1404214,0
1404430,1
1404475,0
1404691,1
1404737,0
1404946,1
1404991,0
1405210,1
1405240,0
1405462,1
1405507,0
1405722,1
1405763,0
1405982,1
1406025,0
1406235,1
1406281,0
1406500,1
1406525,0
1406751,1
1406795,0
1407003,1
1407044,0
1407268,1
1407309,0
1407532,1
1407569,0
1407788,1
1407828,0
1408040,1
1408090,0
1408298,1
1408339,0
1408561,1
1408604,0
1408823,1
1408855,0
1409077,1
1409110,0
1409330,1
1409373,0
1409598,1
1409637,0
1409852,1
1409885,0
1410103,1
1410152,0
1410363,1
1410408,0
1410629,1
1410663,0
1410884,1
1410925,0
1411147,1
1411174,0
1411394,1
1411430,0
1411658,1
1411691,0
1411912,1
1411959,0
1412168,1
1412212,0
1412435,1
1412480,0
1412695,1
1412730,0
1412949,1
1412989,0
1413197,1
1413244,0
1413465,1
1413502,0
1413718,1
1413764,0
1413977,1
1414030,0
1414238,1
1414278,0
1414495,1
1414536,0
1414761,1
1414793,0
1415006,1
1415051,0
1415269,1
1415311,0
1415526,1
1415570,0
1415783,1
1415829,0
1416038,1
1416079,0
1416307,1
1416340,0
1416562,1
1416605,0
1416821,1
1416858,0
1417085,1
1417105,0
1417337,1
1417374,0
1417593,1
1417632,0
1417846,1
1417889,0
1418104,1
1418150,0
1418367,1
1418410,0
1418627,1
1418667,0
1418878,1
1418925,0
1419138,1
1419183,0
1419396,1
1419436,0
1419656,1
1419706,0
1419917,1
1419962,0
1420181,1
1420215,0
1420446,1
1420458,0
1420693,1
1420737,0
1420950,1
1420988,0
1421203,1
1421242,0
1421468,1
1421502,0
1421721,1
1421765,0
1421981,1
1422026,0
1422236,1
1422276,0
1422497,1
1422540,0
1422750,1
1422796,0
1423004,1
1423051,0
1423263,1
1423311,0
1423519,1
1423572,0
1423787,1
1423827,0
1424039,1
1424076,0
1424304,1
1424340,0
1424553,1
1424600,0
1424822,1
1424857,0
1425078,1
1425117,0
1425328,1
1425382,0
1425590,1
1425638,0
1425851,1
1425881,0
1426108,1
1426148,0
1426364,1
1426415,0
1426623,1
1426664,0
1426880,1
1426914,0
1427129,1
1427180,0
1427401,1
1427441,0
1427655,1
1427699,0
1427912,1
1427960,0
1428169,1
1428209,0
1428425,1
1428472,0
1428692,1
1428734,0
1428946,1
1428990,0
1429203,1
1429237,0
1429463,1
1429510,0
1429713,1
1429765,0
1429981,1
1429999,0
1430234,1
1430278,0
1430494,1
1430534,0
1430745,1
1430801,0
1431005,1
1431050,0
1431269,1
1431313,0
1431530,1
1431571,0
1431779,1
1431831,0
1432039,1
1432085,0
1432297,1
1432343,0
1432558,1
1432604,0
1432823,1
1432857,0
1433073,1
1433112,0
1433326,1
1433379,0
1433596,1
1433630,0
1433851,1
1433892,0
1434106,1
1434153,0
1434365,1
1434410,0
1434626,1
1434667,0
1434884,1
1434925,0
1435137,1
1435180,0
1435392,1
1435443,0
1435660,1
1435703,0
1435919,1
1435948,0
1436169,1
1436217,0
1436433,1
1436475,0
1436691,1
1436735,0
1436954,1
1436980,0
1437204,1
1437245,0
1437468,1
1437507,0
1437723,1
1437761,0
1437980,1
1438019,0
1438233,1
1438282,0
1438497,1
1438542,0
1438751,1
1438800,0
1439014,1
1439056,0
1439265,1
1439316,0
1439531,1
1439571,0
1439778,1
1439818,0
1440044,1
1440090,0
1440300,1
1440343,0
1440561,1
1440606,0
1440816,1
1440865,0
1441074,1
1441122,0
1441334,1
1441371,0
1441590,1
1441633,0
1441860,1
1441891,0
1442100,1
1442148,0
1442367,1
1442411,0
1442632,1
1442666,0
1442885,1
1442920,0
1443151,1
1443179,0
1443400,1
1443441,0
1443652,1
1443698,0
1443910,1
1443951,0
1444170,1
1444217,0
1444432,1
1444474,0
1444687,1
1444727,0
1444944,1
1444986,0
1445212,1
1445243,0
1445458,1
1445509,0
1445724,1
1445763,0
1445970,1
1446022,0
1446235,1
1446284,0
1446484,1
1446527,0
1446750,1
1446793,0
1447008,1
1447040,0
1447270,1
1447313,0
1447531,1
1447570,0
1447783,1
1447831,0
1448042,1
1448084,0
1448298,1
1448334,0
1448558,1
1448603,0
1448825,1
1448864,0
1449074,1
1449107,0
1449328,1
1449373,0
1449598,1
1449636,0
1449853,1
1449899,0
1450108,1
1450154,0
1450363,1
1450409,0
1450626,1
1450670,0
1450876,1
1450924,0
1451141,1
1451185,0
1451400,1
1451445,0
1451658,1
1451692,0
1451909,1
1451952,0
1452170,1
1452213,0
1452433,1
1452468,0
1452695,1
1452725,0
1452947,1
1452987,0
1453205,1
1453250,0
1453468,1
1453505,0
1453722,1
1453761,0
1453981,1
1454018,0
1454231,1
1454271,0
1454499,1
1454531,0
1454751,1
1454797,0
1455012,1
1455052,0
1455271,1
1455312,0
1455534,1
1455570,0
1455784,1
1455823,0
1456045,1
1456084,0
1456299,1
1456347,0
1456564,1
1456604,0
1456822,1
1456858,0
1457077,1
1457118,0
1457338,1
1457382,0
1457587,1
1457636,0
1457851,1
1457895,0
1458111,1
1458146,0
1458362,1
1458409,0
1458624,1
1458664,0
1458878,1
1458926,0
1459146,1
1459179,0
1459400,1
1459437,0
1459658,1
1459692,0
1459925,1
1459960,0
1460169,1
1460212,0
1460439,1
1460473,0
1460688,1
1460729,0
1460942,1
1460981,0
1461209,1
1461213,0
1461462,1
1461500,0
1461727,1
1461766,0
1461988,1
1462021,0
1462239,1
1462270,0
1462492,1
1462542,0
1462757,1
1462795,0
1463010,1
1463050,0
1463265,1
1463316,0
1463520,1
1463562,0
1463787,1
1463825,0
1464052,1
1464080,0
1464306,1
1464339,0
1464557,1
1464596,0
1464814,1
1464859,0
1465076,1
1465120,0
1465335,1
1465374,0
1465591,1
1465632,0
1465859,1
1465891,0
1466114,1
1466144,0
1466364,1
1466407,0
1466632,1
1466660,0
1466889,1
1466929,0
1467152,1
1467180,0
1467398,1
1467434,0
1467671,1
1467693,0
1467917,1
1467953,0
1468182,1
1468210,0
1468432,1
1468462,0
1468696,1
1468731,0
1468946,1
1468986,0
1469207,1
1469240,0
1469464,1
1469501,0
1469729,1
1469761,0
1469994,1
1469998,0
1470249,1
1470279,0
1470499,1
1470537,0
1470759,1
1470787,0
1471019,1
1471052,0
1471274,1
1471309,0
1471535,1
1471555,0
1471800,1
1471820,0
1472047,1
1472088,0
1472317,1
1472331,0
1472575,1
1472577,0
1472822,1
1472846,0
1473079,1
1473115,0
1473337,1
1473364,0
1473855,1
1473886,0
1474651,1
1474654,0
1475408,1
1475441,0
1475671,1
1475693,0
1477224,1
1477230,0
1480068,1
1480069,0
1557991,1
1558010,0
1559023,1
1559040,0
1559803,1
1559809,0
1561354,1
1561360,0
1563150,1
1563166,0
1563936,1
1563947,0
1564181,1
1564203,0
1564454,1
1564462,0
1564964,1
1564970,0
1564979,1
1564983,0
1565205,1
1565235,0
1565473,1
1565504,0
1565728,1
1565763,0
1565980,1
1566004,0
1566758,1
1566787,0
1567018,1
1567039,0
1567280,1
1567297,0
1567530,1
1567553,0
1568056,1
1568068,0
1568312,1
1568324,0
1568823,1
1568854,0
1569077,1
1569111,0
1569338,1
1569377,0
1569598,1
1569621,0
1569846,1
1569883,0
1570115,1
1570137,0
1570370,1
1570391,0
1570646,1
1570652,0
1570893,1
1570919,0
1571142,1
1571178,0
1571405,1
1571423,0
1571661,1
1571695,0
1571915,1
1571941,0
1572183,1
1572202,0
1572434,1
1572454,0
1572951,1
1572987,0
1573212,1
1573233,0
1573469,1
1573505,0
1573733,1
1573756,0
1573986,1
1574017,0
1574244,1
1574273,0
1574501,1
1574534,0
1574766,1
1574796,0
1575019,1
1575051,0
1575271,1
1575308,0
1575533,1
1575560,0
1575810,1
1575828,0
1576045,1
1576085,0
1576303,1
1576332,0
1576558,1
1576595,0
1576823,1
1576857,0
1577078,1
1577112,0
1577337,1
1577365,0
1577598,1
1577630,0
1577848,1
1577886,0
1578104,1
1578148,0
1578370,1
1578405,0
1578635,1
1578648,0
1578882,1
1578919,0
1579145,1
1579180,0
1579403,1
1579434,0
1579662,1
1579693,0
1579915,1
1579953,0
1580174,1
1580214,0
1580429,1
1580464,0
1580701,1
1580729,0
1580944,1
1580980,0
1581207,1
1581244,0
1581457,1
1581501,0
1581721,1
1581766,0
1581990,1
1582020,0
1582239,1
1582272,0
1582496,1
1582539,0
1582752,1
1582792,0
1583022,1
1583045,0
1583274,1
1583313,0
1583529,1
1583554,0
1584057,1
1584086,0
1584300,1
1584338,0
1584557,1
1584598,0
1584813,1
1584852,0
1585072,1
1585116,0
1585339,1
1585379,0
1585584,1
1585632,0
1585857,1
1585896,0
1586107,1
1586151,0
1586363,1
1586412,0
1586626,1
1586666,0
1586879,1
1586922,0
1587133,1
1587179,0
1587400,1
1587440,0
1587651,1
1587701,0
1587921,1
1587953,0
1588174,1
1588217,0
1588429,1
1588473,0
1588685,1
1588725,0
1588945,1
1588992,0
1589206,1
1589238,0
1589455,1
1589499,0
1589722,1
1589763,0
1589973,1
1590018,0
1590235,1
1590280,0
1590494,1
1590527,0
1590752,1
1590794,0
1591008,1
1591055,0
1591272,1
1591316,0
1591527,1
1591567,0
1591786,1
1591829,0
1592046,1
1592091,0
1592302,1
1592341,0
1592556,1
1592596,0
1592813,1
1592864,0
1593076,1
1593122,0
1593330,1
1593369,0
1593592,1
1593635,0
1593852,1
1593892,0
1594104,1
1594139,0
1594364,1
1594400,0
1594620,1
1594664,0
1594882,1
1594931,0
1595140,1
1595181,0
1595406,1
1595445,0
1595654,1
1595694,0
1595914,1
1595955,0
1596169,1
1596218,0
1596430,1
1596474,0
1596692,1
1596732,0
1596950,1
1596987,0
1597199,1
1597248,0
1597468,1
1597512,0
1597718,1
1597759,0
1597974,1
1598023,0
1598238,1
1598285,0
1598501,1
1598540,0
1598751,1
1598799,0
1599006,1
1599050,0
1599273,1
1599310,0
1599526,1
1599566,0
1599780,1
1599831,0
1600042,1
1600088,0
1600295,1
1600346,0
1600557,1
1600599,0
1600815,1
1600864,0
1601075,1
1601123,0
1601327,1
1601378,0
1601588,1
1601630,0
1601855,1
1601897,0
1602112,1
1602145,0
1602367,1
1602409,0
1602631,1
1602671,0
1602882,1
1602927,0
1603137,1
1603187,0
1603394,1
1603437,0
1603650,1
1603691,0
1603911,1
1603955,0
1604173,1
1604216,0
1604425,1
1604472,0
1604684,1
1604733,0
1604942,1
1604994,0
1605203,1
1605242,0
1605461,1
1605513,0
1605718,1
1605763,0
1605975,1
1606018,0
1606236,1
1606285,0
1606491,1
1606545,0
1606750,1
1606795,0
1607004,1
1607052,0
1607274,1
1607318,0
1607528,1
1607568,0
1607779,1
1607824,0
1608040,1
1608089,0
1608301,1
1608333,0
1608553,1
1608599,0
1608811,1
1608865,0
1609080,1
1609122,0
1609332,1
1609383,0
1609590,1
1609616,0
1609858,1
1609893,0
1610105,1
1610151,0
1610365,1
1610410,0
1610621,1
1610673,0
1610880,1
1610927,0
1611141,1
1611184,0
1611390,1
1611445,0
1611660,1
1611704,0
1611909,1
1611962,0
1612176,1
1612221,0
1612427,1
1612473,0
1612685,1
1612728,0
1612939,1
1612986,0
1613197,1
1613242,0
1613456,1
1613514,0
1613713,1
1613763,0
1613974,1
1614015,0
1614235,1
1614281,0
1614487,1
1614541,0
1614749,1
1614795,0
1615008,1
1615057,0
1615266,1
1615313,0
1615523,1
1615571,0
1615779,1
1615825,0
1616043,1
1616089,0
1616302,1
1616343,0
1616561,1
1616600,0
1616822,1
1616863,0
1617075,1
1617117,0
1617329,1
1617378,0
1617586,1
1617640,0
1617857,1
1617892,0
1618102,1
1618152,0
1618366,1
1618408,0
1618626,1
1618673,0
1618877,1
1618920,0
1619137,1
1619180,0
1619389,1
1619441,0
1619659,1
1619702,0
1619911,1
1619963,0
1620172,1
1620214,0
1620431,1
1620479,0
1620685,1
1620735,0
1620942,1
1620992,0
1621198,1
1621247,0
1621464,1
1621513,0
1621718,1
1621763,0
1621975,1
1622021,0
1622234,1
1622279,0
1622494,1
1622540,0
1622746,1
1622794,0
1623010,1
1623054,0
1623267,1
1623310,0
1623523,1
1623577,0
1623792,1
1623832,0
1624042,1
1624084,0
1624293,1
1624341,0
1624553,1
1624609,0
1624813,1
1624861,0
1625069,1
1625120,0
1625336,1
1625376,0
1625600,1
1625636,0
1625853,1
1625892,0
1626109,1
1626151,0
1626364,1
1626405,0
1626626,1
1626669,0
1626876,1
1626916,0
1627142,1
1627186,0
1627398,1
1627440,0
1627657,1
1627701,0
1627915,1
1627954,0
1628170,1
1628220,0
1628431,1
1628455,0
1628683,1
1628726,0
1628945,1
1628990,0
1629223,1
1629250,0
1629463,1
1629511,0
1629714,1
1629767,0
1629971,1
1630024,0
1630238,1
1630278,0
1630495,1
1630539,0
1630746,1
1630795,0
1631010,1
1631058,0
1631273,1
1631310,0
1631526,1
1631571,0
1631777,1
1631825,0
1632038,1
1632082,0
1632303,1
1632346,0
1632553,1
1632607,0
1632818,1
1632864,0
1633066,1
1633118,0
1633329,1
1633380,0
1633591,1
1633640,0
1633853,1
1633890,0
1634103,1
1634150,0
1634362,1
1634411,0
1634628,1
1634670,0
1634877,1
1634928,0
1635141,1
1635178,0
1635400,1
1635442,0
1635669,1
1635699,0
1635912,1
1635958,0
1636170,1
1636210,0
1636428,1
1636470,0
1636680,1
1636736,0
1636943,1
1636992,0
1637201,1
1637245,0
1637461,1
1637507,0
1637714,1
1637756,0
1637979,1
1638019,0
1638236,1
1638275,0
1638493,1
1638536,0
1638750,1
1638802,0
1639005,1
1639053,0
1639266,1
1639316,0
1639523,1
1639574,0
1639790,1
1639827,0
1640043,1
1640083,0
1640308,1
1640351,0
1640558,1
1640605,0
1640817,1
1640858,0
1641075,1
1641121,0
1641331,1
1641378,0
1641592,1
1641640,0
1641851,1
1641893,0
1642111,1
1642152,0
1642365,1
1642411,0
1642621,1
1642662,0
1642884,1
1642928,0
1643139,1
1643179,0
1643399,1
1643428,0
1643657,1
1643703,0
1643917,1
1643952,0
1644172,1
1644216,0
1644430,1
1644475,0
1644686,1
1644731,0
1644945,1
1644986,0
1645204,1
1645242,0
1645459,1
1645508,0
1645721,1
1645762,0
1645978,1
1646021,0
1646231,1
1646282,0
1646493,1
1646540,0
1646753,1
1646796,0
1647007,1
1647059,0
1647276,1
1647317,0
1647524,1
1647570,0
1647790,1
1647826,0
1648042,1
1648087,0
1648304,1
1648344,0
1648557,1
1648606,0
1648815,1
1648850,0
1649074,1
1649122,0
1649334,1
1649377,0
1649590,1
1649638,0
1649844,1
1649892,0
1650119,1
1650154,0
1650363,1
1650409,0
1650620,1
1650663,0
1650881,1
1650917,0
1651137,1
1651184,0
1651398,1
1651449,0
1651652,1
1651707,0
1651922,1
1651962,0
1652171,1
1652214,0
1652429,1
1652467,0
1652683,1
1652735,0
1652948,1
1652998,0
1653203,1
1653243,0
1653462,1
1653509,0
1653716,1
1653765,0
1653978,1
1654019,0
1654238,1
1654281,0
1654489,1
1654537,0
1654758,1
1654799,0
1655018,1
1655057,0
1655265,1
1655311,0
1655532,1
1655576,0
1655782,1
1655826,0
1656047,1
1656085,0
1656298,1
1656341,0
1656562,1
1656592,0
1656817,1
1656860,0
1657076,1
1657121,0
1657338,1
1657381,0
1657600,1
1657634,0
1657847,1
1657893,0
1658108,1
1658149,0
1658360,1
1658409,0
1658626,1
1658669,0
1658875,1
1658928,0
1659137,1
1659183,0
1659392,1
1659442,0
1659654,1
1659700,0
1659908,1
1659957,0
1660175,1
1660210,0
1660432,1
1660475,0
1660687,1
1660732,0
1660943,1
1660990,0
1661204,1
1661247,0
1661462,1
1661508,0
1661718,1
1661765,0
1661976,1
1662021,0
1662237,1
1662277,0
1662490,1
1662536,0
1662754,1
1662795,0
1663006,1
1663057,0
1663267,1
1663314,0
1663528,1
1663568,0
1663788,1
1663830,0
1664051,1
1664078,0
1664305,1
1664340,0
1664562,1
1664586,0
1664814,1
1664854,0
1665080,1
1665118,0
1665341,1
1665370,0
1665592,1
1665638,0
1665849,1
1665886,0
1666116,1
1666150,0
1666369,1
1666401,0
1666620,1
1666652,0
1666898,1
1666923,0
1667140,1
1667184,0
1667401,1
1667439,0
1667660,1
1667697,0
1667916,1
1667945,0
1668177,1
1668211,0
1668430,1
1668469,0
1668689,1
1668730,0
1668955,1
1668988,0
1669207,1
1669243,0
1669466,1
1669497,0
1669737,1
1669755,0
1669975,1
1670012,0
1670247,1
1670275,0
1670506,1
1670532,0
1670757,1
1670781,0
1671017,1
1671047,0
1671274,1
1671305,0
1671783,1
1671816,0
1672303,1
1672335,0
1672571,1
1672597,0
1672828,1
1672845,0
1673079,1
1673111,0
1673348,1
1673358,0
1673609,1
1673617,0
1673856,1
1673884,0
1674122,1
1674141,0
1674367,1
1674385,0
1674649,1
1674661,0
1675147,1
1675168,0
1681096,1
1681096,0
1723414,1
1723423,0
1728059,1
1728075,0
1729355,1
1729362,0
1731919,1
1731944,0
1732962,1
1732974,0
1735025,1
1735041,0
1736061,1
1736080,0
1736573,1
1736582,0
1738116,1
1738136,0
1738375,1
1738386,0
1740176,1
1740204,0
1741211,1
1741225,0
1741737,1
1741745,0
1742507,1
1742519,0
1742760,1
1742790,0
1743025,1
1743041,0
1743547,1
1743568,0
1744585,1
1744593,0
1745085,1
1745098,0
1745595,1
1745624,0
1745865,1
1745873,0
1746124,1
1746129,0
1746375,1
1746392,0
1746640,1
1746650,0
1746888,1
1746897,0
1747146,1
1747179,0
1747410,1
1747441,0
1747660,1
1747688,0
1747931,1
1747942,0
1749219,1
1749243,0
1749464,1
1749489,0
1749739,1
1749746,0
1749984,1
1750008,0
1750251,1
1750266,0
1750504,1
1750521,0
1750756,1
1750777,0
1751015,1
1751021,0
1751277,1
1751296,0
1751546,1
1751564,0
1751790,1
1751819,0
1752312,1
1752336,0
1752575,1
1752600,0
1752834,1
1752838,0
1753083,1
1753102,0
1753356,1
1753365,0
1753612,1
1753627,0
1753862,1
1753895,0
1754115,1
1754141,0
1754387,1
1754399,0
1754638,1
1754653,0
1755143,1
1755172,0
1755398,1
1755436,0
1755657,1
1755695,0
1755926,1
1755935,0
1756178,1
1756201,0
1756437,1
1756457,0
1756696,1
1756727,0
1756946,1
1756977,0
1757220,1
1757221,0
1757461,1
1757507,0
1757729,1
1757755,0
1758239,1
1758278,0
1758497,1
1758522,0
1759272,1
1759302,0
1759539,1
1759565,0
1759797,1
1759825,0
1760048,1
1760072,0
1760308,1
1760335,0
1760563,1
1760596,0
1760821,1
1760837,0
1761076,1
1761095,0
1761340,1
1761369,0
1761594,1
1761630,0
1761858,1
1761879,0
1762628,1
1762638,0
1762893,1
1762920,0
1763150,1
1763179,0
1763406,1
1763434,0
1763660,1
1763691,0
1763915,1
1763955,0
1764174,1
1764200,0
1764441,1
1764467,0
1764691,1
1764712,0
1764952,1
1764987,0
1765203,1
1765228,0
1765466,1
1765503,0
1765725,1
1765755,0
1765994,1
1766011,0
1766236,1
1766277,0
1766490,1
1766540,0
1766766,1
1766782,0
1767012,1
1767042,0
1767527,1
1767570,0
1767787,1
1767824,0
1768040,1
1768071,0
1768301,1
1768344,0
1768564,1
1768600,0
1768821,1
1768863,0
1769080,1
1769117,0
1769335,1
1769374,0
1769599,1
1769625,0
1769854,1
1769886,0
1770110,1
1770143,0
1770377,1
1770411,0
1770625,1
1770666,0
1770883,1
1770914,0
1771402,1
1771432,0
1771675,1
1771695,0
1771916,1
1771956,0
1772174,1
1772207,0
1772437,1
1772474,0
1772686,1
1772727,0
1772945,1
1772983,0
1773210,1
1773239,0
1773472,1
1773506,0
1773725,1
1773768,0
1773981,1
1774021,0
1774246,1
1774276,0
1774505,1
1774536,0
1774761,1
1774789,0
1775025,1
1775051,0
1775274,1
1775307,0
1775529,1
1775566,0
1775802,1
1775821,0
1776052,1
1776081,0
1776303,1
1776340,0
1776564,1
1776602,0
1776825,1
1776859,0
1777076,1
1777113,0
1777336,1
1777371,0
1777591,1
1777635,0
1777852,1
1777891,0
1778107,1
1778149,0
1778375,1
1778407,0
1778621,1
1778659,0
1778900,1
1778917,0
1779134,1
1779169,0
1779392,1
1779442,0
1779655,1
1779697,0
1779917,1
1779950,0
1780178,1
1780208,0
1780436,1
1780468,0
1780690,1
1780720,0
1780942,1
1780982,0
1781214,1
1781249,0
1781465,1
1781505,0
1781721,1
1781763,0
1781978,1
1782025,0
1782244,1
1782267,0
1782493,1
1782540,0
1782750,1
1782795,0
1783016,1
1783054,0
1783272,1
1783312,0
1783529,1
1783575,0
1783783,1
1783826,0
1784038,1
1784086,0
1784301,1
1784343,0
1784562,1
1784600,0
1784814,1
1784858,0
1785076,1
1785113,0
1785336,1
1785372,0
1785590,1
1785635,0
1785858,1
1785886,0
1786112,1
1786149,0
1786371,1
1786402,0
1786631,1
1786663,0
1786880,1
1786925,0
1787145,1
1787182,0
1787400,1
1787448,0
1787666,1
1787696,0
1787920,1
1787956,0
1788178,1
1788212,0
1788439,1
1788466,0
1788688,1
1788729,0
1788947,1
1788980,0
1789209,1
1789241,0
1789463,1
1789502,0
1789723,1
1789766,0
1789977,1
1790023,0
1790237,1
1790281,0
1790496,1
1790518,0
1790524,1
1790536,0
1790752,1
1790796,0
1791012,1
1791055,0
1791265,1
1791313,0
1791544,1
1791565,0
1791789,1
1791829,0
1792045,1
1792086,0
1792297,1
1792345,0
1792558,1
1792595,0
1792822,1
1792861,0
1793072,1
1793114,0
1793336,1
1793374,0
1793595,1
1793629,0
1793855,1
1793894,0
1794099,1
1794153,0
1794365,1
1794407,0
1794625,1
1794665,0
1794887,1
1794926,0
1795136,1
1795168,0
1795402,1
1795430,0
1795659,1
1795700,0
1795916,1
1795960,0
1796167,1
1796206,0
1796429,1
1796469,0
1796690,1
1796729,0
1796954,1
1796994,0
1797203,1
1797241,0
1797465,1
1797509,0
1797722,1
1797755,0
1798239,1
1798283,0
1798497,1
1798531,0
1798758,1
1798799,0
1799005,1
1799046,0
1799266,1
1799305,0
1799526,1
1799570,0
1799802,1
1799824,0
1800048,1
1800078,0
1800296,1
1800341,0
1800566,1
1800601,0
1800820,1
1800863,0
1801074,1
1801119,0
1801335,1
1801378,0
1801585,1
1801630,0
1801854,1
1801895,0
1802111,1
1802145,0
1802369,1
1802411,0
1802627,1
1802663,0
1802882,1
1802924,0
1803156,1
1803184,0
1803398,1
1803441,0
1803663,1
1803699,0
1803912,1
1803958,0
1804176,1
1804216,0
1804429,1
1804471,0
1804691,1
1804723,0
1804953,1
1804993,0
1805210,1
1805247,0
1805463,1
1805502,0
1805716,1
1805766,0
1805978,1
1806022,0
1806241,1
1806283,0
1806499,1
1806540,0
1806758,1
1806791,0
1807019,1
1807042,0
1807268,1
1807310,0
1807529,1
1807565,0
1807786,1
1807828,0
1808043,1
1808084,0
1808312,1
1808341,0
1808563,1
1808597,0
1808816,1
1808863,0
1809085,1
1809124,0
1809329,1
1809378,0
1809594,1
1809632,0
1809850,1
1809893,0
1810110,1
1810153,0
1810370,1
1810410,0
1810629,1
1810662,0
1810886,1
1810922,0
1811145,1
1811174,0
1811398,1
1811441,0
1811656,1
1811699,0
1811912,1
1811953,0
1812172,1
1812215,0
1812431,1
1812471,0
1812693,1
1812734,0
1812953,1
1812989,0
1813201,1
1813247,0
1813461,1
1813509,0
1813724,1
1813754,0
1813975,1
1814015,0
1814236,1
1814277,0
1814493,1
1814536,0
1814755,1
1814781,0
1815010,1
1815053,0
1815266,1
1815312,0
1815523,1
1815570,0
1815778,1
1815834,0
1816038,1
1816085,0
1816305,1
1816340,0
1816563,1
1816597,0
1816817,1
1816864,0
1817076,1
1817118,0
1817339,1
1817373,0
1817597,1
1817633,0
1817850,1
1817884,0
1818114,1
1818142,0
1818367,1
1818411,0
1818628,1
1818669,0
1818883,1
1818921,0
1819142,1
1819179,0
1819395,1
1819442,0
1819659,1
1819701,0
1819912,1
1819959,0
1820166,1
1820201,0
1820427,1
1820477,0
1820684,1
1820730,0
1820950,1
1820993,0
1821201,1
1821244,0
1821460,1
1821501,0
1821727,1
1821760,0
1822233,1
1822278,0
1822490,1
1822536,0
1822748,1
1822800,0
1823019,1
1823056,0
1823270,1
1823308,0
1823529,1
1823569,0
1823794,1
1823825,0
1824053,1
1824082,0
1824295,1
1824344,0
1824556,1
1824597,0
1824822,1
1824861,0
1825077,1
1825122,0
1825332,1
1825371,0
1825596,1
1825636,0
1825850,1
1825886,0
1826107,1
1826149,0
1826368,1
1826411,0
1826642,1
1826657,0
1826885,1
1826928,0
1827140,1
1827167,0
1827397,1
1827437,0
1827662,1
1827689,0
1827914,1
1827960,0
1828175,1
1828217,0
1828436,1
1828473,0
1828687,1
1828732,0
1828944,1
1828984,0
1829202,1
1829245,0
1829464,1
1829506,0
1829723,1
1829760,0
1829979,1
1830015,0
1830236,1
1830281,0
1830501,1
1830539,0
1830758,1
1830789,0
1831002,1
1831043,0
1831271,1
1831313,0
1831526,1
1831569,0
1831788,1
1831828,0
1832047,1
1832087,0
1832308,1
1832340,0
1832559,1
1832604,0
1832826,1
1832853,0
1833091,1
1833126,0
1833333,1
1833375,0
1833588,1
1833630,0
1833847,1
1833897,0
1834111,1
1834152,0
1834371,1
1834407,0
1834624,1
1834666,0
1834887,1
1834922,0
1835142,1
1835178,0
1835397,1
1835438,0
1835650,1
1835707,0
1835929,1
1835950,0
1836169,1
1836214,0
1836432,1
1836471,0
1836697,1
1836724,0
1836945,1
1836989,0
1837204,1
1837248,0
1837457,1
1837497,0
1837723,1
1837740,0
1837752,1
1837752,0
1837989,1
1838023,0
1838238,1
1838276,0
1838496,1
1838531,0
1838754,1
1838794,0
1839009,1
1839051,0
1839268,1
1839309,0
1839536,1
1839570,0
1839790,1
1839830,0
1840050,1
1840094,0
1840306,1
1840341,0
1840559,1
1840600,0
1840816,1
1840861,0
1841080,1
1841119,0
1841331,1
1841374,0
1841588,1
1841633,0
1841847,1
1841881,0
1842106,1
1842155,0
1842367,1
1842405,0
1842620,1
1842660,0
1842875,1
1842932,0
1843142,1
1843179,0
1843402,1
1843443,0
1843656,1
1843698,0
1843918,1
1843958,0
1844173,1
1844212,0
1844430,1
1844472,0
1844691,1
1844733,0
1844939,1
1844992,0
1845203,1
1845242,0
1845464,1
1845509,0
1845721,1
1845766,0
1845981,1
1846024,0
1846244,1
1846276,0
1846497,1
1846527,0
1846757,1
1846793,0
1847010,1
1847057,0
1847268,1
1847316,0
1847526,1
1847561,0
1847781,1
1847823,0
1848040,1
1848081,0
1848300,1
1848342,0
1848567,1
1848593,0
1848816,1
1848851,0
1849077,1
1849118,0
1849335,1
1849376,0
1849586,1
1849616,0
1849855,1
1849892,0
1850108,1
1850144,0
1850364,1
1850409,0
1850627,1
1850666,0
1850887,1
1850925,0
1851145,1
1851182,0
1851404,1
1851438,0
1851656,1
1851687,0
1851924,1
1851957,0
1852166,1
1852207,0
1852438,1
1852478,0
1852693,1
1852731,0
1852939,1
1852987,0
1853204,1
1853246,0
1853466,1
1853503,0
1853720,1
1853760,0
1853988,1
1854008,0
1854236,1
1854277,0
1854501,1
1854542,0
1854749,1
1854801,0
1855014,1
1855051,0
1855273,1
1855307,0
1855533,1
1855568,0
1855786,1
1855829,0
1856049,1
1856090,0
1856300,1
1856348,0
1856567,1
1856585,0
1856816,1
1856858,0
1857078,1
1857119,0
1857337,1
1857370,0
1857591,1
1857631,0
1857844,1
1857883,0
1858112,1
1858148,0
1858367,1
1858415,0
1858638,1
1858666,0
1858881,1
1858927,0
1859144,1
1859178,0
1859401,1
1859430,0
1859658,1
1859696,0
1859912,1
1859957,0
1860174,1
1860204,0
1860426,1
1860472,0
1860690,1
1860731,0
1860942,1
1860981,0
1861202,1
1861235,0
1861471,1
1861505,0
1861716,1
1861758,0
1861983,1
1862017,0
1862248,1
1862282,0
1862506,1
1862540,0
1862746,1
1862784,0
1863009,1
1863053,0
1863271,1
1863299,0
1863530,1
1863573,0
1863790,1
1863826,0
1864056,1
1864086,0
1864312,1
1864343,0
1864555,1
1864599,0
1864817,1
1864860,0
1865082,1
1865102,0
1865343,1
1865369,0
1865595,1
1865631,0
1865858,1
1865887,0
1866109,1
1866155,0
1866371,1
1866412,0
1866621,1
1866658,0
1866880,1
1866919,0
1867135,1
1867167,0
1867410,1
1867429,0
1867663,1
1867694,0
1867929,1
1867961,0
1868173,1
1868207,0
1868438,1
1868473,0
1868690,1
1868727,0
1868951,1
1868983,0
1869211,1
1869236,0
1869463,1
1869495,0
1869984,1
1870019,0
1870257,1
1870279,0
1870766,1
1870785,0
1871015,1
1871044,0
1871275,1
1871302,0
1871802,1
1871824,0
1872046,1
1872076,0
1872314,1
1872342,0
1872560,1
1872568,0
1872827,1
1872856,0
1873089,1
1873115,0
1873614,1
1873617,0
1874382,1
1874401,0
1874885,1
1874925,0
1875161,1
1875169,0
1875927,1
1875944,0
1876448,1
1876455,0
1876707,1
1876729,0
1878501,1
1878513,0
1878771,1
1878787,0
1879027,1
1879035,0
1923159,1
1923165,0
1931674,1
1931680,0
1932697,1
1932716,0
1933221,1
1933225,0
1933725,1
1933745,0
1934246,1
1934266,0
1936313,1
1936335,0
1936832,1
1936858,0
1937357,1
1937367,0
1938632,1
1938650,0
1939151,1
1939174,0
1939403,1
1939421,0
1940185,1
1940205,0
1940439,1
1940465,0
1940954,1
1940979,0
1941216,1
1941240,0
1941467,1
1941496,0
1941731,1
1941733,0
1941982,1
1942014,0
1942767,1
1942786,0
1943017,1
1943052,0
1943282,1
1943296,0
1943540,1
1943564,0
1943792,1
1943799,0
1944307,1
1944336,0
1944829,1
1944859,0
1945081,1
1945110,0
1945347,1
1945364,0
1945597,1
1945624,0
1946116,1
1946137,0
1946375,1
1946407,0
1946892,1
1946917,0
1947662,1
1947687,0
1947919,1
1947947,0
1948438,1
1948448,0
1948700,1
1948727,0
1948963,1
1948981,0
1949205,1
1949241,0
1949460,1
1949498,0
1949727,1
1949758,0
1949986,1
1950017,0
1950240,1
1950270,0
1950499,1
1950529,0
1950761,1
1950788,0
1951022,1
1951046,0
1951267,1
1951288,0
1951547,1
1951550,0
1951788,1
1951828,0
1952050,1
1952081,0
1952299,1
1952322,0
1952564,1
1952596,0
1952842,1
1952849,0
1953073,1
1953115,0
1953341,1
1953373,0
1953602,1
1953634,0
1953854,1
1953890,0
1954110,1
1954145,0
1954365,1
1954405,0
1954629,1
1954656,0
1954883,1
1954893,0
1955161,1
1955166,0
1955409,1
1955439,0
1955661,1
1955691,0
1955915,1
1955955,0
1956177,1
1956206,0
1956429,1
1956466,0
1956691,1
1956716,0
1956953,1
1956982,0
1957202,1
1957243,0
1957466,1
1957500,0
1957728,1
1957760,0
1957984,1
1958011,0
1958236,1
1958270,0
1958497,1
1958536,0
1958757,1
1958797,0
1959014,1
1959048,0
1959279,1
1959298,0
1959531,1
1959563,0
1959794,1
1959828,0
1960049,1
1960075,0
1960296,1
1960339,0
1960579,1
1960592,0
1960815,1
1960858,0
1961079,1
1961115,0
1961340,1
1961374,0
1961585,1
1961625,0
1961856,1
1961881,0
1962372,1
1962409,0
1962625,1
1962666,0
1963140,1
1963174,0
1963403,1
1963437,0
1963661,1
1963670,0
1963679,1
1963698,0
1963913,1
1963955,0
1964173,1
1964214,0
1964428,1
1964467,0
1964690,1
1964727,0
1964942,1
1964985,0
1965206,1
1965245,0
1965466,1
1965504,0
1965729,1
1965752,0
1965982,1
1966019,0
1966235,1
1966278,0
1966494,1
1966532,0
1966751,1
1966794,0
1967013,1
1967055,0
1967269,1
1967307,0
1967521,1
1967558,0
1967790,1
1967823,0
1968045,1
1968084,0
1968304,1
1968344,0
1968559,1
1968602,0
1968817,1
1968861,0
1969073,1
1969112,0
1969340,1
1969377,0
1969589,1
1969630,0
1969853,1
1969896,0
1970108,1
1970144,0
1970369,1
1970402,0
1970616,1
1970661,0
1970890,1
1970921,0
1971134,1
1971186,0
1971393,1
1971438,0
1971654,1
1971697,0
1971921,1
1971951,0
1972175,1
1972216,0
1972436,1
1972478,0
1972692,1
1972734,0
1972947,1
1972993,0
1973208,1
1973240,0
1973464,1
1973508,0
1973720,1
1973773,0
1973975,1
1974024,0
1974236,1
1974278,0
1974492,1
1974528,0
1974758,1
1974799,0
1975010,1
1975050,0
1975274,1
1975312,0
1975529,1
1975576,0
1975778,1
1975827,0
1976037,1
1976072,0
1976298,1
1976343,0
1976565,1
1976600,0
1976817,1
1976856,0
1977076,1
1977121,0
1977332,1
1977375,0
1977587,1
1977626,0
1977848,1
1977898,0
1978123,1
1978141,0
1978379,1
1978416,0
1978617,1
1978666,0
1978885,1
1978909,0
1979138,1
1979178,0
1979395,1
1979438,0
1979657,1
1979708,0
1979922,1
1979957,0
1980179,1
1980212,0
1980442,1
1980474,0
1980690,1
1980728,0
1980948,1
1980993,0
1981204,1
1981247,0
1981461,1
1981501,0
1981722,1
1981764,0
1981982,1
1982025,0
1982237,1
1982274,0
1982497,1
1982536,0
1982758,1
1982799,0
1983013,1
1983059,0
1983265,1
1983312,0
1983528,1
1983572,0
1983783,1
1983829,0
1984052,1
1984089,0
1984304,1
1984339,0
1984562,1
1984599,0
1984815,1
1984862,0
1985073,1
1985118,0
1985331,1
1985380,0
1985589,1
1985628,0
1985847,1
1985889,0
1986108,1
1986149,0
1986360,1
1986410,0
1986623,1
1986660,0
1986881,1
1986927,0
1987138,1
1987186,0
1987402,1
1987436,0
1987661,1
1987706,0
1987925,1
1987962,0
1988166,1
1988211,0
1988429,1
1988465,0
1988688,1
1988735,0
1988945,1
1988994,0
1989210,1
1989245,0
1989454,1
1989511,0
1989716,1
1989756,0
1989977,1
1990022,0
1990234,1
1990281,0
1990503,1
1990541,0
1990753,1
1990801,0
1991008,1
1991061,0
1991276,1
1991311,0
1991524,1
1991559,0
1991783,1
1991831,0
1992035,1
1992087,0
1992296,1
1992342,0
1992566,1
1992597,0
1992815,1
1992858,0
1993075,1
1993116,0
1993337,1
1993380,0
1993595,1
1993633,0
1993842,1
1993888,0
1994105,1
1994152,0
1994368,1
1994405,0
1994620,1
1994655,0
1994885,1
1994928,0
1995138,1
1995183,0
1995399,1
1995440,0
1995660,1
1995699,0
1995920,1
1995956,0
1996167,1
1996220,0
1996431,1
1996471,0
1996691,1
1996729,0
1996941,1
1996995,0
1997204,1
1997249,0
1997465,1
1997505,0
1997725,1
1997758,0
1997977,1
1998023,0
1998238,1
1998280,0
1998494,1
1998537,0
1998759,1
1998787,0
1999010,1
1999051,0
1999261,1
1999316,0
1999532,1
1999569,0
1999782,1
1999825,0
2000000,0
